# Object Export From Tinkercad Server 2015

mtllib obj.mtl

o obj_0
v 66.046 		-18.499 		4
v 66.45 		-18.29 		4
v -33.141 		-33.474 		4
v 66.848 		-18.499 		4
v 67.087 		-19.127 		4
v 67.167 		-20.173 		4
v 67.142 		-20.747 		4
v 67.069 		-21.213 		4
v 66.948 		-21.573 		4
v 66.799 		-21.828 		4
v 66.633 		-21.981 		4
v 66.45 		-22.032 		4
v -33.927 		-35.43 		4
v -34.793 		-36.758 		4
v -34.903 		-34.609 		4
v -34.873 		-34.609 		4
v 27.268 		-25.696 		5.822
v 27.268 		-25.696 		4
v 26.723 		-25.446 		4
v 26.723 		-25.446 		5.822
v -54.976 		-35.309 		5.822
v -76.725 		-26.592 		4
v -76.725 		-26.592 		5.822
v -54.976 		-33.45 		5.822
v 26.184 		-25.363 		4
v 26.184 		-25.363 		5.822
v -56.251 		-32.823 		5.822
v 25.643 		-25.457 		4
v 25.643 		-25.457 		5.822
v -75.411 		-25.663 		4
v -76.137 		-26.565 		4
v -76.137 		-26.565 		5.822
v -75.411 		-25.663 		5.822
v 25.161 		-25.739 		4
v 25.161 		-25.739 		5.822
v 71.675 		-39.582 		4
v 66.046 		-21.825 		4
v 65.804 		-21.205 		4
v 65.723 		-20.173 		4
v 24.74 		-26.208 		4
v 65.804 		-19.127 		4
v -76.752 		-28.067 		5.822
v -76.752 		-28.067 		4
v -39.509 		-41.398 		4
v -38.886 		-41.224 		4
v 76.491 		-30.875 		4
v -76.703 		-28.067 		4
v -56.19 		-40.859 		5.822
v -76.703 		-28.067 		5.822
v -40.509 		-41.538 		4
v -55.385 		-40.162 		5.822
v -40.05 		-41.503 		4
v 59.958 		-27.994 		5.822
v -52.816 		-43.662 		5.822
v -34.793 		-43.662 		4
v -36.018 		-43.662 		4
v -74.741 		-27.85 		5.822
v -74.741 		-27.85 		4
v -50.486 		-41.344 		5.822
v 59.878 		-25.339 		5.822
v 59.887 		-25.881 		5.822
v -49.261 		-41.344 		5.822
v 59.914 		-26.766 		5.822
v -75.377 		-28.021 		5.822
v -75.377 		-28.021 		4
v 59.826 		-32.487 		5.822
v 71.675 		-39.582 		5.822
v -75.878 		-28.536 		5.822
v -75.878 		-28.536 		4
v 59.67 		-30.717 		5.822
v 73.457 		-40.773 		4
v 73.457 		-40.773 		5.822
v 59.41 		-29.419 		5.822
v 72.524 		-34.657 		5.822
v 72.524 		-34.657 		4
v -38.886 		-43.493 		4
v -39.469 		-43.775 		4
v -40.036 		-43.944 		4
v -40.588 		-44 		4
v 72.757 		-38.48 		5.822
v 72.757 		-38.48 		4
v -80.725 		-27.922 		4
v -80.725 		-27.922 		5.822
v -52.816 		-41.658 		5.822
v -81.409 		-26.5 		4
v 56.883 		-28.617 		5.822
v -81.409 		-26.5 		5.822
v -57.026 		-41.277 		5.822
v 56.865 		-25.639 		5.822
v 56.269 		-30.918 		5.822
v -56.978 		-43.866 		5.822
v -56.158 		-43.464 		5.822
v -55.385 		-42.793 		5.822
v 65.832 		-41.344 		4
v 65.832 		-41.344 		5.822
v 56.158 		-26.468 		5.822
v -76.652 		-32.41 		5.822
v 55.577 		-27.85 		5.822
v 55.145 		-29.708 		5.822
v 54.886 		-32.002 		5.822
v -76.652 		-32.41 		4
v -60.194 		-32.823 		5.822
v -29.616 		-43.662 		5.822
v -29.616 		-43.662 		4
v -76.245 		-29.395 		5.822
v -76.245 		-29.395 		4
v 52.789 		-25.677 		5.822
v 51.554 		-25.677 		5.822
v -76.499 		-30.655 		5.822
v -60.224 		-35.309 		5.822
v -76.499 		-30.655 		4
v 59.878 		-35.406 		5.822
v 59.812 		-37.364 		5.822
v -33.967 		-32.123 		4
v -33.967 		-32.123 		5.822
v 59.878 		-34.73 		5.822
v -61.488 		-34.826 		5.822
v -79.885 		-32.042 		4
v -79.885 		-32.042 		5.822
v -34.793 		-29.877 		4
v -80.2 		-29.797 		4
v -34.793 		-29.877 		5.822
v -80.2 		-29.797 		5.822
v -64.585 		-34.633 		5.822
v 73.686 		-43.718 		4
v 73.686 		-43.718 		5.822
v -63.31 		-34.657 		5.822
v -81.288 		-30.875 		4
v -59.943 		-38.702 		5.822
v -81.288 		-30.875 		5.822
v -38.846 		-28.019 		4
v -38.846 		-28.019 		5.822
v -61.379 		-37.485 		5.822
v -61.05 		-39.73 		5.822
v -34.793 		-18.193 		4
v -34.793 		-18.193 		5.822
v -59.166 		-40.738 		5.822
v -41.803 		-38.375 		4
v 75.787 		-28.606 		4
v -36.018 		-18.193 		4
v -68.399 		-34.657 		5.822
v 59.036 		-40.894 		5.822
v -36.018 		-18.193 		5.822
v -68.399 		-34.657 		4
v 59.4 		-40.089 		5.822
v -65.404 		-40.77 		5.822
v -64.79 		-38.469 		5.822
v 59.652 		-38.925 		5.822
v -71.615 		-34.657 		4
v -38.846 		-25.677 		4
v -71.615 		-34.657 		5.822
v -38.846 		-25.677 		5.822
v -63.66 		-39.679 		5.822
v -63.398 		-37.385 		5.822
v -41.803 		-28.019 		5.822
v -72.889 		-34.633 		4
v -41.803 		-28.019 		4
v -72.889 		-34.633 		5.822
v -57.894 		-41.417 		5.822
v 57.698 		-44 		5.822
v 58.568 		-43.697 		5.822
v -41.803 		-25.677 		4
v -41.803 		-25.677 		5.822
v 63.503 		-41.658 		5.822
v 63.503 		-43.662 		5.822
v -57.844 		-44 		5.822
v -59.765 		-42.916 		5.822
v -58.878 		-43.729 		5.822
v 61.113 		-43.662 		5.822
v -41.803 		-20.897 		4
v -41.803 		-20.897 		5.822
v 60.117 		-43.662 		5.822
v -60.503 		-41.562 		5.822
v -42.51 		-20.897 		4
v -42.51 		-20.897 		5.822
v 59.928 		-41.272 		5.822
v -68.347 		-36.9 		5.822
v -68.347 		-36.9 		4
v -43.028 		-25.58 		4
v -44.83 		-26.401 		4
v -44.83 		-26.401 		5.822
v -43.028 		-25.58 		5.822
v 59.878 		-41.272 		5.822
v -68.191 		-38.67 		5.822
v -68.191 		-38.67 		4
v -65.385 		-43.726 		5.822
v -44.83 		-28.019 		4
v -64.678 		-42.906 		5.822
v -44.83 		-28.019 		5.822
v -64.097 		-41.538 		5.822
v 57.917 		-41.538 		5.822
v -67.931 		-39.968 		5.822
v -67.931 		-39.968 		4
v 58.542 		-41.377 		5.822
v -68.399 		-18.193 		5.822
v -69.623 		-18.193 		5.822
v -67.551 		-40.84 		5.822
v -67.551 		-40.84 		4
v -68.399 		-24.349 		5.822
v 59.295 		-42.788 		5.822
v -43.028 		-28.019 		4
v -43.028 		-28.019 		5.822
v -68.404 		-25.352 		5.822
v 56.065 		-34.754 		5.822
v -33.927 		-35.43 		5.822
v -71.964 		-39.679 		4
v -71.964 		-39.679 		5.822
v -68.421 		-26.592 		5.822
v 56.27 		-38.523 		5.822
v -71.702 		-37.385 		4
v -71.702 		-37.385 		5.822
v -68.448 		-28.067 		5.822
v 56.888 		-40.784 		5.822
v -34.793 		-36.758 		5.822
v 54.8 		-34.73 		5.822
v 54.885 		-37.442 		5.822
v -68.399 		-28.067 		5.822
v -33.141 		-33.474 		5.822
v -73.708 		-40.77 		4
v 55.141 		-39.719 		5.822
v -73.708 		-40.77 		5.822
v -66.437 		-27.85 		5.822
v 50.659 		-40.862 		5.822
v -73.094 		-38.469 		4
v -73.094 		-38.469 		5.822
v -67.073 		-28.021 		5.822
v 51.056 		-40.017 		5.822
v 51.333 		-38.788 		5.822
v -66.218 		-25.363 		5.822
v -67.574 		-28.536 		5.822
v -69.623 		-43.662 		4
v -69.623 		-43.662 		5.822
v 51.499 		-37.131 		5.822
v -34.903 		-34.609 		5.822
v -34.873 		-34.609 		5.822
v -68.727 		-43.662 		4
v -68.727 		-43.662 		5.822
v 51.554 		-35.044 		5.822
v -67.106 		-25.663 		5.822
v -67.833 		-26.565 		5.822
v -73.712 		-28.603 		5.822
v 77.58 		-29.797 		4
v 77.895 		-32.042 		4
v -67.084 		-43.713 		4
v -67.084 		-43.713 		5.822
v 69.437 		-43.662 		4
v 69.437 		-43.662 		5.822
v -67.811 		-42.852 		5.822
v -67.811 		-42.852 		4
v -72.391 		-27.825 		5.822
v 74.615 		-27.85 		4
v -72.973 		-26.457 		5.822
v -73.684 		-25.637 		5.822
v 77.054 		-27.922 		4
v 72.195 		-41.465 		4
v 72.195 		-41.465 		5.822
v -66.218 		-44 		4
v -66.218 		-44 		5.822
v 72.883 		-42.873 		4
v 72.883 		-42.873 		5.822
v 74.644 		-25.363 		4
v 75.567 		-25.647 		4
v -68.348 		-32.41 		5.822
v 76.37 		-26.5 		4
v -67.941 		-29.395 		5.822
v -41.659 		-40.132 		4
v -38.886 		-41.224 		5.822
v -68.195 		-30.655 		5.822
v -39.509 		-41.398 		5.822
v -43.028 		-38.399 		4
v -41.228 		-41.186 		4
v -40.509 		-41.538 		5.822
v -66.427 		-41.538 		4
v -66.427 		-41.538 		5.822
v -40.05 		-41.503 		5.822
v -41.944 		-43.378 		4
v -42.757 		-41.511 		4
v -73.095 		-30.865 		5.822
v -46.881 		-41.658 		4
v -71.701 		-31.946 		5.822
v -46.881 		-43.662 		4
v -71.96 		-29.668 		5.822
v -73.689 		-43.726 		4
v -73.689 		-43.726 		5.822
v -40.588 		-44 		5.822
v -50.486 		-20.535 		4
v -36.018 		-43.662 		5.822
v -76.703 		-18.193 		5.822
v -77.927 		-18.193 		5.822
v -52.298 		-20.197 		4
v -52.298 		-18.193 		4
v -68.399 		-41.417 		4
v -34.793 		-43.662 		5.822
v -49.261 		-18.193 		4
v -76.703 		-24.349 		5.822
v -68.399 		-41.417 		5.822
v -56.459 		-30.06 		4
v -40.036 		-43.944 		5.822
v -76.708 		-25.352 		5.822
v -57.083 		-28.402 		4
v -68.478 		-41.417 		5.822
v -68.478 		-41.417 		4
v -55.072 		-31.168 		4
v -67.05 		-41.363 		5.822
v -67.05 		-41.363 		4
v -57.231 		-25.61 		4
v -56.468 		-26.35 		4
v -55.833 		-27.584 		4
v -55.357 		-29.212 		4
v 69.437 		-41.658 		4
v 69.437 		-41.658 		5.822
v 67.057 		-41.344 		5.822
v 67.057 		-41.344 		4
v -58.123 		-27.85 		4
v -59.194 		-28.402 		4
v 61.113 		-18.193 		4
v 61.113 		-18.193 		5.822
v -72.982 		-42.906 		4
v -72.982 		-42.906 		5.822
v 59.878 		-18.193 		4
v 59.878 		-18.193 		5.822
v -72.401 		-41.538 		4
v -72.401 		-41.538 		5.822
v -60.572 		-27.922 		4
v -59.893 		-26.5 		4
v -59.077 		-25.647 		4
v -58.123 		-25.363 		4
v -74.522 		-25.363 		5.822
v 64.01 		-25.677 		4
v 64.01 		-25.677 		5.822
v -65.408 		-28.603 		4
v 64.01 		-27.681 		4
v 64.01 		-27.681 		5.822
v -65.379 		-25.637 		4
v -64.669 		-26.457 		4
v -64.087 		-27.825 		4
v 61.113 		-28.672 		4
v -76.703 		-34.657 		5.822
v -76.703 		-34.657 		4
v -59.884 		-30.06 		4
v -39.469 		-43.775 		5.822
v -76.651 		-36.9 		5.822
v -76.651 		-36.9 		4
v -61.387 		-32.117 		4
v -61.081 		-29.816 		4
v -76.495 		-38.67 		5.822
v -76.495 		-38.67 		4
v -64.791 		-30.865 		4
v -76.235 		-39.968 		5.822
v -76.235 		-39.968 		4
v -63.656 		-29.668 		4
v -75.855 		-40.84 		5.822
v -63.397 		-31.946 		4
v -75.855 		-40.84 		4
v -38.886 		-43.493 		5.822
v -54.976 		-33.45 		4
v 59.878 		-27.994 		5.822
v -54.976 		-35.309 		4
v 59.878 		-27.994 		4
v -80.195 		-39.636 		4
v 59.286 		-26.533 		4
v -80.195 		-39.636 		5.822
v 59.286 		-26.533 		5.822
v -56.251 		-32.823 		4
v -79.883 		-37.35 		4
v -79.883 		-37.35 		5.822
v 58.559 		-25.655 		4
v 58.559 		-25.655 		5.822
v -79.779 		-34.657 		4
v -79.779 		-34.657 		5.822
v -56.19 		-40.859 		4
v 57.698 		-25.363 		4
v 57.698 		-25.363 		5.822
v -55.385 		-40.162 		4
v -81.287 		-38.48 		4
v -52.816 		-43.662 		4
v -81.287 		-38.48 		5.822
v 59.031 		-28.547 		4
v -81.054 		-34.657 		4
v -81.054 		-34.657 		5.822
v -50.486 		-41.344 		4
v 59.031 		-28.547 		5.822
v -49.261 		-41.344 		4
v 58.53 		-28.024 		4
v 58.53 		-28.024 		5.822
v -77.927 		-43.662 		4
v -77.927 		-43.662 		5.822
v 57.907 		-27.85 		5.822
v 57.907 		-27.85 		4
v -77.031 		-43.662 		4
v -77.031 		-43.662 		5.822
v -52.816 		-41.658 		4
v -57.026 		-41.277 		4
v 59.878 		-25.339 		4
v -75.388 		-43.713 		4
v -75.388 		-43.713 		5.822
v -55.385 		-42.793 		4
v -56.158 		-43.464 		4
v -56.978 		-43.866 		4
v -76.115 		-42.852 		5.822
v -76.115 		-42.852 		4
v -74.522 		-44 		4
v 59.887 		-25.881 		4
v -74.522 		-44 		5.822
v -60.194 		-32.823 		4
v -60.224 		-35.309 		4
v 59.914 		-26.766 		4
v -76.703 		-41.417 		4
v -76.703 		-41.417 		5.822
v 59.958 		-27.994 		4
v -61.488 		-34.826 		4
v -74.731 		-41.538 		4
v -64.585 		-34.633 		4
v -74.731 		-41.538 		5.822
v -63.31 		-34.657 		4
v 59.826 		-32.487 		4
v -76.782 		-41.417 		5.822
v -76.782 		-41.417 		4
v -59.943 		-38.702 		4
v 59.67 		-30.717 		4
v -75.354 		-41.363 		5.822
v -75.354 		-41.363 		4
v 59.41 		-29.419 		4
v -59.166 		-40.738 		4
v -61.05 		-39.73 		4
v -61.379 		-37.485 		4
v 56.865 		-25.639 		4
v -65.404 		-40.77 		4
v -64.79 		-38.469 		4
v -81.4 		-42.895 		4
v 56.158 		-26.468 		4
v -63.398 		-37.385 		4
v -63.66 		-39.679 		4
v -81.4 		-42.895 		5.822
v 55.577 		-27.85 		4
v -80.715 		-41.513 		4
v -80.715 		-41.513 		5.822
v -57.894 		-41.417 		4
v 55.145 		-29.708 		4
v 54.886 		-32.002 		4
v -88.362 		-18.193 		4
v -57.844 		-44 		4
v -88.362 		-18.193 		5.822
v -58.878 		-43.729 		4
v -59.765 		-42.916 		4
v -89.597 		-18.193 		4
v -89.597 		-18.193 		5.822
v -60.503 		-41.562 		4
v -82.212 		-25.647 		4
v -64.097 		-41.538 		4
v -82.212 		-25.647 		5.822
v -64.678 		-42.906 		4
v 56.859 		-43.729 		5.822
v -65.385 		-43.726 		4
v 55.567 		-41.562 		5.822
v 56.149 		-42.916 		5.822
v -83.135 		-25.363 		4
v -83.135 		-25.363 		5.822
v -69.623 		-18.193 		4
v -68.399 		-18.193 		4
v -68.399 		-24.349 		4
v 49.473 		-41.538 		5.822
v 50.131 		-41.369 		5.822
v -84.1 		-25.642 		4
v 51.793 		-43.662 		5.822
v 52.789 		-43.662 		5.822
v -84.1 		-25.642 		5.822
v -68.404 		-25.352 		4
v -84.923 		-26.479 		4
v -84.923 		-26.479 		5.822
v -68.421 		-26.592 		4
v -85.604 		-27.874 		4
v -85.604 		-27.874 		5.822
v 51.614 		-41.272 		5.822
v -68.448 		-28.067 		4
v -81.992 		-28.606 		4
v -68.399 		-28.067 		4
v -81.992 		-28.606 		5.822
v 56.883 		-28.617 		4
v -66.437 		-27.85 		4
v -83.165 		-27.85 		5.822
v -83.165 		-27.85 		4
v -67.073 		-28.021 		4
v 56.269 		-30.918 		4
v -84.326 		-28.606 		5.822
v -84.326 		-28.606 		4
v 73.453 		-28.606 		4
v -67.574 		-28.536 		4
v -66.218 		-25.363 		4
v 52.789 		-25.677 		4
v -88.362 		-28.672 		4
v -67.833 		-26.565 		4
v -67.106 		-25.663 		4
v -73.712 		-28.603 		4
v -89.597 		-27.994 		5.822
v -89.597 		-27.994 		4
v 51.554 		-25.677 		4
v -89.597 		-25.339 		4
v -89.597 		-25.339 		5.822
v -73.684 		-25.637 		4
v -72.973 		-26.457 		4
v -72.391 		-27.825 		4
v -68.348 		-32.41 		4
v -89.588 		-25.881 		4
v 59.878 		-35.406 		4
v -89.588 		-25.881 		5.822
v 59.812 		-37.364 		4
v -67.941 		-29.395 		4
v 59.878 		-34.73 		4
v -68.195 		-30.655 		4
v -89.562 		-26.766 		4
v -89.562 		-26.766 		5.822
v 59.036 		-40.894 		4
v -89.517 		-27.994 		4
v 72.756 		-30.875 		4
v 73.68 		-25.642 		4
v -89.517 		-27.994 		5.822
v 59.4 		-40.089 		4
v -73.095 		-30.865 		4
v 59.652 		-38.925 		4
v 71.361 		-31.994 		4
v 71.666 		-29.733 		4
v 72.175 		-27.874 		4
v 72.857 		-26.479 		4
v -86.113 		-29.733 		4
v -86.113 		-29.733 		5.822
v -71.96 		-29.668 		4
v -71.701 		-31.946 		4
v -86.419 		-31.994 		4
v -86.419 		-31.994 		5.822
v 65.832 		-28.019 		4
v 57.698 		-44 		4
v -77.927 		-18.193 		4
v -76.703 		-18.193 		4
v -76.703 		-24.349 		4
v 67.057 		-25.677 		4
v 58.568 		-43.697 		4
v 74.625 		-41.538 		4
v -76.708 		-25.352 		4
v -85.023 		-30.875 		5.822
v -85.023 		-30.875 		4
v 63.503 		-43.662 		4
v 75.792 		-40.773 		4
v 74.605 		-44 		4
v 61.113 		-43.662 		4
v 60.117 		-43.662 		4
v 75.559 		-43.724 		4
v 76.492 		-38.48 		4
v 63.503 		-41.658 		4
v -89.649 		-32.487 		4
v 76.726 		-34.657 		4
v 77.064 		-41.513 		4
v -89.649 		-32.487 		5.822
v 76.379 		-42.895 		4
v -89.805 		-30.717 		4
v -89.805 		-30.717 		5.822
v -90.065 		-29.419 		4
v -90.065 		-29.419 		5.822
v 78 		-34.657 		4
v 77.896 		-37.35 		4
v 77.584 		-39.636 		4
v -74.522 		-25.363 		4
v 59.295 		-42.788 		4
v -90.189 		-26.533 		4
v -90.189 		-26.533 		5.822
v 59.928 		-41.272 		4
v -90.916 		-25.655 		4
v -90.916 		-25.655 		5.822
v 59.878 		-41.272 		4
v 71.363 		-37.313 		4
v 71.259 		-34.657 		4
v 57.917 		-41.538 		4
v -91.778 		-25.363 		4
v -91.778 		-25.363 		5.822
v 58.542 		-41.377 		4
v -92.611 		-25.639 		4
v -92.611 		-25.639 		5.822
v 54.8 		-34.73 		4
v 54.885 		-37.442 		4
v 24.74 		-26.208 		5.822
v 27.478 		-28.839 		4
v 27.478 		-28.839 		5.822
v 26.942 		-28.357 		5.822
v 26.942 		-28.357 		4
v 26.438 		-28.067 		5.822
v 26.438 		-28.067 		4
v 25.964 		-27.97 		5.822
v 25.964 		-27.97 		4
v 25.284 		-28.142 		5.822
v 25.284 		-28.142 		4
v 27.816 		-26.111 		4
v 27.816 		-26.111 		5.822
v 24.717 		-28.657 		5.822
v 24.717 		-28.657 		4
v 23.435 		-25.677 		4
v 23.435 		-25.677 		5.822
v -90.445 		-28.547 		5.822
v 22.44 		-25.677 		4
v 22.44 		-25.677 		5.822
v -90.946 		-28.024 		5.822
v -91.569 		-27.85 		5.822
v 24.356 		-26.892 		4
v 24.356 		-26.892 		5.822
v -92.592 		-28.617 		5.822
v 23.987 		-27.817 		4
v 23.987 		-27.817 		5.822
v -93.206 		-30.918 		5.822
v 51.544 		-41.272 		5.822
v -93.318 		-26.468 		5.822
v -93.899 		-27.85 		5.822
v -94.33 		-29.708 		5.822
v -94.589 		-32.002 		5.822
v 49.284 		-44 		5.822
v 50.225 		-43.697 		5.822
v 50.979 		-42.788 		5.822
v -85.256 		-34.657 		5.822
v -46.881 		-43.662 		5.822
v -41.803 		-38.375 		5.822
v 47.88 		-25.677 		5.822
v 46.655 		-25.677 		5.822
v -86.52 		-34.657 		5.822
v -41.659 		-40.132 		5.822
v -89.597 		-35.406 		5.822
v 42.971 		-31.736 		5.822
v -89.597 		-34.73 		5.822
v 42.79 		-29.577 		5.822
v 55.141 		-39.719 		4
v 42.245 		-28.281 		5.822
v 44.196 		-31.374 		5.822
v 44.119 		-29.459 		5.822
v -84.322 		-40.773 		5.822
v 43.89 		-27.93 		5.822
v -81.988 		-40.773 		5.822
v 56.065 		-34.754 		4
v 18.925 		-27.922 		4
v 18.925 		-27.922 		5.822
v 56.27 		-38.523 		4
v -85.022 		-38.48 		5.822
v 56.888 		-40.784 		4
v 18.241 		-26.5 		4
v 18.241 		-26.5 		5.822
v -86.416 		-37.313 		5.822
v -86.104 		-39.582 		5.822
v 17.438 		-25.647 		4
v 17.438 		-25.647 		5.822
v -89.663 		-37.364 		5.822
v -90.075 		-40.089 		5.822
v 16.515 		-25.363 		4
v 16.515 		-25.363 		5.822
v 50.659 		-40.862 		4
v -89.823 		-38.925 		5.822
v 51.056 		-40.017 		4
v 17.658 		-28.606 		4
v -41.228 		-41.186 		5.822
v 17.658 		-28.606 		5.822
v -43.028 		-38.399 		5.822
v 16.485 		-27.85 		5.822
v 16.485 		-27.85 		4
v -93.318 		-26.468 		4
v -93.899 		-27.85 		4
v 23.585 		-28.984 		5.822
v 23.585 		-28.984 		4
v -94.33 		-29.708 		4
v -42.757 		-41.511 		5.822
v -94.589 		-32.002 		4
v -41.944 		-43.378 		5.822
v 23.634 		-28.984 		4
v 23.634 		-28.984 		5.822
v 51.333 		-38.788 		4
v 51.499 		-37.131 		4
v -46.881 		-41.658 		5.822
v -90.445 		-28.547 		4
v 51.554 		-35.044 		4
v -90.946 		-28.024 		4
v 24.262 		-29.515 		5.822
v 24.262 		-29.515 		4
v 23.93 		-30.679 		5.822
v -49.261 		-18.193 		5.822
v 23.93 		-30.679 		4
v -91.569 		-27.85 		4
v 56.859 		-43.729 		4
v -52.298 		-18.193 		5.822
v 56.149 		-42.916 		4
v 23.731 		-32.144 		5.822
v 23.731 		-32.144 		4
v 55.567 		-41.562 		4
v -92.592 		-28.617 		4
v -52.298 		-20.197 		5.822
v 49.473 		-41.538 		4
v -93.206 		-30.918 		4
v 19.766 		-32.042 		4
v -50.486 		-20.535 		5.822
v 19.766 		-32.042 		5.822
v 50.131 		-41.369 		4
v 19.45 		-29.797 		4
v 19.45 		-29.797 		5.822
v 52.789 		-43.662 		4
v 51.793 		-43.662 		4
v -55.072 		-31.168 		5.822
v -86.52 		-34.657 		4
v 18.362 		-30.875 		4
v 18.362 		-30.875 		5.822
v 51.614 		-41.272 		4
v -55.357 		-29.212 		5.822
v -85.256 		-34.657 		4
v -55.833 		-27.584 		5.822
v 51.544 		-41.272 		4
v -56.468 		-26.35 		5.822
v 23.664 		-33.909 		5.822
v 23.664 		-33.909 		4
v -57.231 		-25.61 		5.822
v 50.979 		-42.788 		4
v -89.597 		-35.406 		4
v 50.225 		-43.697 		4
v 49.284 		-44 		4
v -89.597 		-34.73 		4
v 19.455 		-39.636 		4
v 19.455 		-39.636 		5.822
v -56.459 		-30.06 		5.822
v 46.655 		-25.677 		4
v 47.88 		-25.677 		4
v 19.767 		-37.35 		4
v 19.767 		-37.35 		5.822
v -86.416 		-37.313 		4
v -57.083 		-28.402 		5.822
v 19.871 		-34.657 		4
v 42.971 		-31.736 		4
v 19.871 		-34.657 		5.822
v -86.104 		-39.582 		4
v 42.79 		-29.577 		4
v 17.662 		-40.773 		4
v 17.662 		-40.773 		5.822
v 42.245 		-28.281 		4
v 44.119 		-29.459 		4
v 44.196 		-31.374 		4
v 41.338 		-27.85 		5.822
v -84.322 		-40.773 		4
v 41.338 		-27.85 		4
v 43.89 		-27.93 		4
v -81.988 		-40.773 		4
v 43.509 		-26.787 		5.822
v 42.957 		-25.996 		5.822
v 42.217 		-25.521 		5.822
v 41.288 		-25.363 		5.822
v 41.288 		-25.363 		4
v 42.217 		-25.521 		4
v 42.957 		-25.996 		4
v 43.509 		-26.787 		4
v 40.65 		-28 		5.822
v -58.123 		-25.363 		5.822
v -85.022 		-38.48 		4
v 39.913 		-28.45 		5.822
v 40.65 		-28 		4
v -59.077 		-25.647 		5.822
v 40.439 		-25.54 		5.822
v 39.913 		-28.45 		4
v 39.576 		-26.071 		5.822
v 38.7 		-26.956 		5.822
v 39.128 		-29.201 		5.822
v -59.893 		-26.5 		5.822
v 39.128 		-29.201 		4
v 38.7 		-26.956 		4
v -89.663 		-37.364 		4
v 39.576 		-26.071 		4
v -60.572 		-27.922 		5.822
v 40.439 		-25.54 		4
v -90.075 		-40.089 		4
v 42.961 		-34.923 		5.822
v 42.961 		-36.565 		5.822
v 41.866 		-35.044 		5.822
v -89.823 		-38.925 		4
v -58.123 		-27.85 		5.822
v 42.961 		-36.565 		4
v 42.961 		-34.923 		4
v 41.074 		-35.21 		5.822
v -59.194 		-28.402 		5.822
v 41.866 		-35.044 		4
v -82.22 		-43.724 		5.822
v -82.22 		-43.724 		4
v 42.971 		-32.871 		5.822
v 41.607 		-32.992 		5.822
v 41.074 		-35.21 		4
v -84.093 		-43.718 		4
v -84.093 		-43.718 		5.822
v -83.175 		-44 		4
v -83.175 		-44 		5.822
v -64.087 		-27.825 		5.822
v 41.607 		-32.992 		4
v 42.971 		-32.871 		4
v -64.669 		-26.457 		5.822
v -88.362 		-43.662 		4
v -88.362 		-43.662 		5.822
v -89.358 		-43.662 		5.822
v -65.379 		-25.637 		5.822
v -89.358 		-43.662 		4
v 47.88 		-37.289 		5.822
v 48.057 		-39.649 		5.822
v -85.584 		-41.465 		4
v -85.584 		-41.465 		5.822
v -65.408 		-28.603 		5.822
v 47.88 		-37.289 		4
v 46.655 		-37.434 		5.822
v 48.057 		-39.649 		4
v -84.896 		-42.873 		4
v 42.374 		-40.331 		5.822
v -84.896 		-42.873 		5.822
v -61.081 		-29.816 		5.822
v 46.655 		-37.434 		4
v 42.7 		-39.311 		5.822
v -61.387 		-32.117 		5.822
v 42.374 		-40.331 		4
v 42.896 		-38.056 		5.822
v -83.155 		-41.538 		4
v -83.155 		-41.538 		5.822
v 42.7 		-39.311 		4
v 44.196 		-40.96 		5.822
v -59.884 		-30.06 		5.822
v 42.896 		-38.056 		4
v 48.588 		-41.066 		5.822
v 44.196 		-40.96 		4
v -63.397 		-31.946 		5.822
v 46.947 		-41.082 		5.822
v -89.547 		-41.272 		4
v 47.823 		-43.27 		5.822
v 48.588 		-41.066 		4
v -89.547 		-41.272 		5.822
v -63.656 		-29.668 		5.822
v 44.196 		-43.662 		5.822
v -89.597 		-41.272 		5.822
v -89.597 		-41.272 		4
v 47.823 		-43.27 		4
v 46.947 		-41.082 		4
v 43.3 		-43.662 		5.822
v 44.196 		-43.662 		4
v -64.791 		-30.865 		5.822
v 43.3 		-43.662 		4
v -94.675 		-34.73 		4
v -94.675 		-34.73 		5.822
v -94.59 		-37.442 		4
v -94.59 		-37.442 		5.822
v 43.041 		-41.272 		5.822
v -94.334 		-39.719 		4
v -94.334 		-39.719 		5.822
v 42.991 		-41.272 		5.822
v 43.041 		-41.272 		4
v 41.409 		-41.532 		5.822
v -93.411 		-34.754 		5.822
v -93.411 		-34.754 		4
v 42.991 		-41.272 		4
v 41.937 		-41.082 		5.822
v -93.205 		-38.523 		5.822
v -93.205 		-38.523 		4
v 41.409 		-41.532 		4
v -92.588 		-40.784 		5.822
v -92.588 		-40.784 		4
v 41.937 		-41.082 		4
v 41.058 		-43.936 		5.822
v 41.526 		-43.742 		5.822
v 41.926 		-43.421 		5.822
v 42.287 		-42.914 		5.822
v 42.643 		-42.197 		5.822
v -90.439 		-40.894 		4
v 42.643 		-42.197 		4
v -90.439 		-40.894 		5.822
v 42.287 		-42.914 		4
v 41.926 		-43.421 		4
v 41.526 		-43.742 		4
v 41.058 		-43.936 		4
v 40.45 		-35.548 		5.822
v 39.994 		-36.058 		5.822
v -93.908 		-41.562 		4
v 40.45 		-35.548 		4
v -93.908 		-41.562 		5.822
v 39.69 		-36.742 		5.822
v 39.994 		-36.058 		4
v 39.507 		-37.635 		5.822
v -93.327 		-42.916 		4
v 39.69 		-36.742 		4
v -93.327 		-42.916 		5.822
v 39.704 		-33.74 		5.822
v 39.446 		-38.737 		5.822
v 39.507 		-37.635 		4
v -92.616 		-43.729 		4
v 39.596 		-40.373 		5.822
v -92.616 		-43.729 		5.822
v 39.446 		-38.737 		4
v 38.562 		-35.631 		5.822
v 39.704 		-33.74 		4
v -91.778 		-44 		4
v -91.778 		-44 		5.822
v 39.596 		-40.373 		4
v 38.182 		-38.665 		5.822
v 38.562 		-35.631 		4
v 38.25 		-40.229 		5.822
v -90.907 		-43.697 		4
v -90.907 		-43.697 		5.822
v 40.044 		-41.355 		5.822
v -90.18 		-42.788 		4
v -90.18 		-42.788 		5.822
v 38.25 		-40.229 		4
v 38.182 		-38.665 		4
v 40.044 		-41.355 		4
v 40.79 		-41.682 		5.822
v 38.456 		-41.54 		5.822
v 40.79 		-41.682 		4
v 38.456 		-41.54 		4
v 40.522 		-44 		5.822
v 40.522 		-44 		4
v 39.843 		-43.844 		4
v 38.799 		-42.6 		5.822
v 39.269 		-43.378 		4
v 39.269 		-43.378 		5.822
v 38.799 		-42.6 		4
v 39.843 		-43.844 		5.822
v 18.363 		-38.48 		4
v 18.363 		-38.48 		5.822
v 18.596 		-34.657 		4
v 18.596 		-34.657 		5.822
v 22.44 		-43.662 		4
v 22.44 		-43.662 		5.822
v -91.559 		-41.538 		5.822
v 23.664 		-43.662 		4
v 23.664 		-43.662 		5.822
v -90.934 		-41.377 		5.822
v 18.25 		-42.895 		4
v 18.25 		-42.895 		5.822
v 17.43 		-43.724 		5.822
v 17.43 		-43.724 		4
v 18.935 		-41.513 		4
v 18.935 		-41.513 		5.822
v 66.046 		-18.499 		5.822
v 16.475 		-44 		4
v 65.804 		-19.127 		5.822
v 16.475 		-44 		5.822
v 65.723 		-20.173 		5.822
v 16.495 		-41.538 		4
v 65.804 		-21.205 		5.822
v 16.495 		-41.538 		5.822
v 66.046 		-21.825 		5.822
v 66.45 		-22.032 		5.822
v 11.577 		-18.579 		4
v 11.577 		-18.579 		5.822
v 11.014 		-18.258 		4
v 66.633 		-21.981 		5.822
v 11.014 		-18.258 		5.822
v 10.444 		-18.064 		4
v 10.444 		-18.064 		5.822
v 66.799 		-21.828 		5.822
v 9.864 		-18 		4
v 9.864 		-18 		5.822
v 66.948 		-21.573 		5.822
v 9.016 		-18.158 		4
v 9.016 		-18.158 		5.822
v 67.069 		-21.213 		5.822
v 8.346 		-18.633 		4
v 8.346 		-18.633 		5.822
v 67.142 		-20.747 		5.822
v 67.167 		-20.173 		5.822
v 11.298 		-20.921 		4
v 11.298 		-20.921 		5.822
v 10.828 		-20.68 		5.822
v 10.828 		-20.68 		4
v 67.087 		-19.127 		5.822
v 66.848 		-18.499 		5.822
v 66.45 		-18.29 		5.822
v 10.36 		-20.535 		5.822
v 10.36 		-20.535 		4
v 77.895 		-32.042 		5.822
v 9.894 		-20.487 		5.822
v 9.894 		-20.487 		4
v 77.58 		-29.797 		5.822
v 9.401 		-20.578 		5.822
v 9.401 		-20.578 		4
v 77.054 		-27.922 		5.822
v 9.026 		-20.851 		5.822
v 9.026 		-20.851 		4
v 8.769 		-21.307 		5.822
v 76.37 		-26.5 		5.822
v 8.769 		-21.307 		4
v 75.567 		-25.647 		5.822
v 8.603 		-21.959 		5.822
v 8.603 		-21.959 		4
v 74.644 		-25.363 		5.822
v 8.503 		-22.852 		5.822
v 8.503 		-22.852 		4
v 8.47 		-23.987 		5.822
v 8.47 		-23.987 		4
v 76.491 		-30.875 		5.822
v 75.787 		-28.606 		5.822
v 15.55 		-25.642 		4
v 15.55 		-25.642 		5.822
v 74.615 		-27.85 		5.822
v 8.47 		-25.677 		5.822
v 8.47 		-25.677 		4
v 11.099 		-25.677 		5.822
v 11.099 		-25.677 		4
v -91.559 		-41.538 		4
v 13.537 		-29.733 		4
v 13.537 		-29.733 		5.822
v -90.934 		-41.377 		4
v 13.232 		-31.994 		4
v 13.232 		-31.994 		5.822
v 73.68 		-25.642 		5.822
v 15.324 		-28.606 		5.822
v 15.324 		-28.606 		4
v 14.627 		-30.875 		5.822
v 14.627 		-30.875 		4
v 72.857 		-26.479 		5.822
v 72.175 		-27.874 		5.822
v 11.099 		-28.019 		4
v 11.099 		-28.019 		5.822
v 8.47 		-28.019 		5.822
v 8.47 		-28.019 		4
v 71.666 		-29.733 		5.822
v 14.727 		-26.479 		4
v 71.361 		-31.994 		5.822
v 14.727 		-26.479 		5.822
v 14.046 		-27.874 		4
v 14.046 		-27.874 		5.822
v 73.453 		-28.606 		5.822
v 72.756 		-30.875 		5.822
v 5.104 		-28.019 		4
v 5.104 		-26.136 		4
v 7.853 		-19.424 		4
v 7.853 		-19.424 		5.822
v 67.057 		-25.677 		5.822
v 5.104 		-26.136 		5.822
v 7.245 		-28.019 		4
v 5.104 		-28.019 		5.822
v 7.245 		-25.58 		4
v 7.245 		-24.011 		4
v 7.313 		-22.096 		4
v 7.515 		-20.567 		4
v 65.832 		-28.019 		5.822
v 15.557 		-43.718 		4
v 75.559 		-43.724 		5.822
v 76.379 		-42.895 		5.822
v 15.328 		-40.773 		4
v 77.064 		-41.513 		5.822
v 14.394 		-34.657 		4
v 14.628 		-38.48 		4
v 77.584 		-39.636 		5.822
v 77.896 		-37.35 		5.822
v 78 		-34.657 		5.822
v 14.754 		-42.873 		4
v 14.066 		-41.465 		4
v 13.546 		-39.582 		4
v 13.234 		-37.313 		4
v 13.13 		-34.657 		4
v 8.47 		-43.662 		4
v 7.245 		-43.662 		4
v 74.605 		-44 		5.822
v -6.396 		-25.677 		4
v -4.892 		-25.677 		4
v -11.106 		-18.193 		4
v -9.881 		-18.193 		4
v -16.194 		-18.499 		4
v -15.955 		-19.127 		4
v 74.625 		-41.538 		5.822
v -15.875 		-20.173 		4
v -15.899 		-20.747 		4
v -15.972 		-21.213 		4
v -16.094 		-21.573 		4
v -16.242 		-21.828 		4
v 75.792 		-40.773 		5.822
v -9.055 		-32.123 		4
v 76.492 		-38.48 		5.822
v -9.881 		-29.877 		4
v 76.726 		-34.657 		5.822
v -15.985 		-25.677 		4
v -4.703 		-43.662 		4
v -6.147 		-43.662 		4
v -9.015 		-35.43 		4
v -8.228 		-33.474 		4
v 71.259 		-34.657 		5.822
v 71.363 		-37.313 		5.822
v 7.515 		-20.567 		5.822
v 7.313 		-22.096 		5.822
v 7.245 		-24.011 		5.822
v 7.245 		-25.58 		5.822
v 7.245 		-28.019 		5.822
v -9.881 		-36.758 		4
v -9.99 		-34.609 		4
v -9.961 		-34.609 		4
v -9.881 		-43.662 		4
v 7.245 		-43.662 		5.822
v -11.106 		-43.662 		4
v 15.557 		-43.718 		5.822
v -15.985 		-41.344 		4
v 8.47 		-43.662 		5.822
v -13.605 		-41.658 		4
v -13.605 		-43.662 		4
v -19.031 		-27.681 		4
v -19.031 		-25.677 		4
v -17.209 		-28.019 		4
v -16.408 		-21.981 		4
v -16.592 		-22.032 		4
v -16.996 		-21.825 		4
v -17.238 		-21.205 		4
v -17.319 		-20.173 		4
v -17.238 		-19.127 		4
v -16.996 		-18.499 		4
v -16.592 		-18.29 		4
v -24.349 		-18.193 		4
v -25.573 		-20.535 		4
v -27.385 		-20.197 		4
v -27.385 		-18.193 		4
v -31.309 		-25.677 		4
v -29.805 		-25.677 		4
v -25.573 		-41.344 		4
v -17.209 		-41.344 		4
v -19.539 		-43.662 		4
v -19.539 		-41.658 		4
v -24.349 		-41.344 		4
v -21.969 		-41.658 		4
v -21.969 		-43.662 		4
v -27.903 		-43.662 		4
v -27.903 		-41.658 		4
v -31.06 		-43.662 		4
v 15.328 		-40.773 		5.822
v 14.394 		-34.657 		5.822
v 14.628 		-38.48 		5.822
v 13.13 		-34.657 		5.822
v 13.234 		-37.313 		5.822
v 13.546 		-39.582 		5.822
v 14.066 		-41.465 		5.822
v 14.754 		-42.873 		5.822
v -4.892 		-25.677 		5.822
v -6.396 		-25.677 		5.822
v -9.881 		-18.193 		5.822
v -11.106 		-18.193 		5.822
v -16.194 		-18.499 		5.822
v -16.242 		-21.828 		5.822
v -16.094 		-21.573 		5.822
v -15.972 		-21.213 		5.822
v -15.899 		-20.747 		5.822
v -15.875 		-20.173 		5.822
v -15.955 		-19.127 		5.822
v -9.055 		-32.123 		5.822
v -9.881 		-29.877 		5.822
v -15.985 		-25.677 		5.822
v -4.703 		-43.662 		5.822
v -9.015 		-35.43 		5.822
v -6.147 		-43.662 		5.822
v -8.228 		-33.474 		5.822
v -9.881 		-36.758 		5.822
v -9.961 		-34.609 		5.822
v -9.99 		-34.609 		5.822
v -9.881 		-43.662 		5.822
v -11.106 		-43.662 		5.822
v -15.985 		-41.344 		5.822
v -13.605 		-43.662 		5.822
v -13.605 		-41.658 		5.822
v -19.031 		-27.681 		5.822
v -19.031 		-25.677 		5.822
v -17.209 		-28.019 		5.822
v -16.592 		-18.29 		5.822
v -16.996 		-18.499 		5.822
v -17.238 		-19.127 		5.822
v -17.319 		-20.173 		5.822
v -17.238 		-21.205 		5.822
v -16.996 		-21.825 		5.822
v -16.592 		-22.032 		5.822
v -16.408 		-21.981 		5.822
v -24.349 		-18.193 		5.822
v -25.573 		-20.535 		5.822
v -27.385 		-20.197 		5.822
v -27.385 		-18.193 		5.822
v -29.805 		-25.677 		5.822
v -31.309 		-25.677 		5.822
v -25.573 		-41.344 		5.822
v -17.209 		-41.344 		5.822
v -19.539 		-41.658 		5.822
v -19.539 		-43.662 		5.822
v -24.349 		-41.344 		5.822
v -21.969 		-43.662 		5.822
v -21.969 		-41.658 		5.822
v -27.903 		-41.658 		5.822
v -27.903 		-43.662 		5.822
v -31.06 		-43.662 		5.822
# 1180 vertices

g group_0_16448250

usemtl color_16448250
s 0

f 14 	16 	13
f 17 	18 	19
f 17 	19 	20
f 15 	16 	14
f 20 	19 	25
f 20 	25 	26
f 299 	23 	22
f 25 	28 	29
f 25 	29 	26
f 30 	31 	32
f 30 	32 	33
f 28 	34 	35
f 28 	35 	29
f 1 	2 	4
f 5 	6 	41
f 6 	7 	39
f 38 	39 	7
f 8 	38 	7
f 9 	38 	8
f 10 	38 	9
f 11 	37 	10
f 12 	37 	11
f 38 	10 	37
f 39 	41 	6
f 41 	1 	5
f 4 	5 	1
f 15 	14 	56
f 24 	27 	21
f 110 	21 	27
f 43 	22 	42
f 23 	42 	22
f 44 	45 	76
f 47 	43 	42
f 47 	42 	49
f 52 	78 	50
f 31 	47 	49
f 31 	49 	32
f 60 	61 	317
f 61 	63 	317
f 53 	317 	63
f 58 	57 	64
f 58 	64 	65
f 55 	56 	14
f 65 	64 	68
f 65 	68 	69
f 66 	169 	53
f 1021 	74 	75
f 62 	59 	54
f 75 	74 	80
f 75 	80 	81
f 59 	84 	54
f 73 	70 	53
f 70 	66 	53
f 81 	80 	72
f 81 	72 	71
f 85 	87 	83
f 85 	83 	82
f 86 	388 	96
f 51 	48 	93
f 48 	88 	93
f 92 	93 	88
f 91 	92 	88
f 88 	159 	91
f 96 	98 	86
f 98 	99 	86
f 90 	86 	99
f 90 	99 	100
f 215 	204 	100
f 106 	69 	105
f 68 	105 	69
f 3 	1109 	1169
f 106 	105 	109
f 106 	109 	111
f 27 	102 	110
f 114 	115 	1170
f 111 	109 	97
f 111 	97 	101
f 114 	16 	115
f 133 	110 	117
f 129 	110 	133
f 110 	102 	117
f 810 	117 	102
f 112 	169 	116
f 116 	169 	66
f 121 	123 	119
f 121 	119 	118
f 120 	122 	15
f 125 	126 	260
f 121 	82 	123
f 83 	123 	82
f 122 	120 	135
f 127 	821 	124
f 128 	380 	130
f 79 	50 	78
f 77 	78 	52
f 76 	77 	52
f 76 	52 	44
f 134 	129 	133
f 137 	129 	134
f 135 	136 	122
f 135 	140 	143
f 135 	143 	136
f 141 	144 	503
f 56 	143 	140
f 144 	141 	178
f 147 	146 	153
f 131 	150 	152
f 131 	152 	132
f 150 	162 	163
f 150 	163 	152
f 113 	169 	112
f 317 	53 	169
f 169 	113 	148
f 142 	183 	145
f 145 	176 	148
f 153 	154 	147
f 124 	147 	154
f 127 	124 	154
f 157 	131 	155
f 132 	155 	131
f 158 	278 	156
f 519 	156 	278
f 95 	164 	165
f 155 	618 	157
f 138 	157 	618
f 166 	91 	159
f 166 	159 	168
f 163 	162 	170
f 163 	170 	171
f 169 	148 	176
f 169 	176 	172
f 170 	174 	175
f 170 	175 	171
f 168 	159 	167
f 173 	167 	137
f 137 	167 	159
f 134 	173 	137
f 141 	177 	178
f 179 	180 	181
f 179 	181 	182
f 176 	145 	183
f 178 	177 	184
f 178 	184 	185
f 180 	187 	189
f 180 	189 	181
f 153 	146 	190
f 190 	146 	188
f 146 	274 	188
f 185 	184 	192
f 185 	192 	193
f 193 	192 	197
f 193 	197 	198
f 195 	196 	199
f 174 	179 	182
f 174 	182 	175
f 183 	142 	200
f 142 	194 	200
f 194 	191 	200
f 161 	200 	191
f 189 	187 	202
f 201 	202 	187
f 203 	199 	196
f 90 	100 	204
f 13 	1180 	205
f 206 	207 	322
f 215 	216 	204
f 203 	196 	208
f 210 	211 	207
f 210 	207 	206
f 196 	212 	208
f 13 	205 	214
f 13 	214 	14
f 209 	204 	216
f 216 	220 	209
f 210 	149 	211
f 151 	211 	149
f 1169 	218 	3
f 213 	209 	220
f 220 	455 	213
f 224 	219 	221
f 224 	221 	225
f 235 	115 	16
f 225 	158 	224
f 156 	224 	158
f 55 	14 	293
f 223 	608 	227
f 239 	240 	222
f 229 	239 	222
f 16 	15 	234
f 16 	234 	235
f 228 	227 	474
f 236 	237 	232
f 236 	232 	231
f 474 	466 	228
f 301 	237 	236
f 226 	222 	240
f 240 	217 	226
f 230 	226 	217
f 122 	234 	15
f 1052 	126 	125
f 139 	242 	46
f 242 	243 	46
f 248 	244 	245
f 165 	246 	247
f 244 	248 	249
f 251 	264 	139
f 242 	139 	254
f 256 	67 	255
f 36 	255 	67
f 253 	57 	252
f 241 	252 	57
f 250 	252 	241
f 257 	258 	245
f 257 	245 	244
f 255 	259 	260
f 255 	260 	256
f 186 	258 	257
f 265 	230 	217
f 45 	267 	76
f 264 	251 	262
f 254 	139 	264
f 261 	262 	251
f 266 	270 	138
f 138 	270 	201
f 45 	44 	269
f 45 	269 	267
f 277 	270 	266
f 277 	266 	271
f 296 	249 	248
f 268 	265 	212
f 217 	212 	265
f 263 	268 	212
f 141 	263 	232
f 263 	212 	232
f 196 	232 	212
f 52 	50 	272
f 52 	272 	275
f 277 	271 	276
f 271 	50 	276
f 79 	276 	50
f 269 	44 	52
f 269 	52 	275
f 250 	241 	282
f 241 	278 	282
f 280 	282 	278
f 278 	158 	280
f 55 	293 	287
f 55 	287 	56
f 290 	291 	286
f 291 	294 	286
f 292 	249 	296
f 304 	274 	305
f 273 	305 	274
f 78 	298 	285
f 78 	285 	79
f 288 	289 	295
f 299 	295 	289
f 292 	296 	301
f 292 	301 	302
f 300 	309 	297
f 309 	303 	297
f 305 	198 	304
f 197 	304 	198
f 299 	289 	23
f 259 	125 	260
f 310 	311 	247
f 310 	247 	246
f 308 	300 	307
f 309 	300 	308
f 300 	314 	307
f 306 	307 	314
f 536 	312 	313
f 274 	146 	273
f 310 	313 	312
f 310 	312 	311
f 109 	42 	97
f 302 	301 	236
f 315 	325 	314
f 314 	327 	306
f 318 	319 	284
f 318 	284 	283
f 316 	320 	321
f 316 	321 	317
f 322 	323 	319
f 322 	319 	318
f 60 	321 	320
f 207 	323 	322
f 327 	314 	326
f 325 	326 	314
f 324 	325 	315
f 33 	32 	57
f 328 	33 	57
f 253 	328 	57
f 329 	332 	333
f 329 	333 	330
f 289 	386 	387
f 64 	57 	32
f 32 	49 	64
f 68 	64 	49
f 331 	480 	335
f 334 	335 	480
f 42 	23 	289
f 339 	101 	338
f 97 	338 	101
f 87 	478 	83
f 339 	338 	342
f 339 	342 	343
f 77 	341 	298
f 77 	298 	78
f 324 	340 	345
f 344 	345 	340
f 315 	340 	324
f 340 	405 	344
f 343 	342 	346
f 343 	346 	347
f 56 	287 	143
f 105 	68 	49
f 347 	346 	349
f 347 	349 	350
f 350 	349 	352
f 350 	352 	354
f 335 	336 	331
f 348 	331 	351
f 351 	331 	336
f 353 	348 	351
f 76 	355 	341
f 76 	341 	77
f 109 	105 	42
f 49 	42 	105
f 289 	387 	42
f 317 	337 	316
f 219 	412 	221
f 358 	406 	364
f 119 	123 	130
f 83 	478 	123
f 357 	359 	363
f 361 	363 	359
f 365 	366 	362
f 365 	362 	360
f 367 	368 	363
f 367 	363 	361
f 358 	364 	356
f 297 	303 	364
f 303 	356 	364
f 369 	370 	366
f 369 	366 	365
f 367 	372 	373
f 367 	373 	368
f 119 	370 	369
f 119 	369 	118
f 374 	397 	371
f 89 	373 	372
f 151 	280 	158
f 225 	211 	158
f 294 	383 	286
f 379 	375 	377
f 379 	377 	380
f 73 	382 	378
f 177 	141 	232
f 381 	286 	383
f 128 	379 	380
f 384 	378 	382
f 384 	382 	385
f 384 	385 	388
f 384 	388 	389
f 184 	177 	232
f 392 	381 	376
f 381 	383 	376
f 281 	376 	383
f 281 	383 	279
f 390 	391 	387
f 390 	387 	386
f 232 	301 	184
f 184 	301 	192
f 389 	388 	479
f 320 	394 	60
f 359 	357 	53
f 395 	396 	401
f 400 	401 	396
f 399 	393 	398
f 397 	398 	393
f 393 	371 	397
f 394 	403 	61
f 394 	61 	60
f 402 	404 	396
f 402 	396 	395
f 207 	225 	221
f 402 	283 	404
f 284 	404 	283
f 406 	405 	364
f 403 	407 	63
f 403 	63 	61
f 151 	158 	211
f 207 	211 	225
f 410 	359 	53
f 409 	408 	401
f 409 	401 	400
f 301 	232 	237
f 406 	411 	405
f 419 	426 	406
f 411 	406 	426
f 411 	344 	405
f 407 	410 	53
f 407 	53 	63
f 274 	304 	248
f 296 	248 	304
f 317 	169 	337
f 432 	413 	415
f 415 	413 	353
f 348 	353 	413
f 416 	116 	66
f 408 	409 	417
f 408 	417 	418
f 248 	245 	274
f 258 	274 	245
f 420 	416 	66
f 420 	66 	70
f 422 	354 	421
f 352 	421 	354
f 423 	420 	70
f 423 	70 	73
f 424 	425 	419
f 425 	426 	419
f 412 	422 	421
f 412 	421 	414
f 378 	423 	73
f 425 	424 	448
f 304 	197 	296
f 412 	414 	221
f 372 	427 	89
f 391 	390 	417
f 418 	417 	390
f 258 	186 	274
f 186 	188 	274
f 427 	431 	89
f 197 	192 	296
f 296 	192 	301
f 89 	431 	96
f 432 	433 	429
f 429 	433 	428
f 432 	429 	413
f 431 	435 	98
f 431 	98 	96
f 436 	437 	434
f 436 	434 	430
f 399 	442 	438
f 207 	221 	323
f 319 	323 	221
f 221 	414 	319
f 435 	439 	99
f 435 	99 	98
f 436 	360 	437
f 362 	437 	360
f 97 	42 	387
f 439 	440 	100
f 439 	100 	99
f 445 	438 	444
f 442 	444 	438
f 424 	438 	445
f 393 	399 	438
f 441 	446 	447
f 441 	447 	443
f 342 	338 	387
f 233 	228 	466
f 233 	466 	238
f 108 	238 	107
f 448 	424 	445
f 346 	342 	387
f 338 	97 	387
f 87 	85 	451
f 449 	451 	85
f 387 	417 	346
f 454 	273 	452
f 257 	273 	454
f 433 	450 	428
f 453 	160 	191
f 455 	456 	213
f 191 	213 	456
f 456 	453 	191
f 161 	191 	160
f 349 	346 	417
f 449 	457 	458
f 449 	458 	451
f 460 	461 	459
f 458 	457 	464
f 458 	464 	467
f 468 	459 	461
f 464 	469 	470
f 464 	470 	467
f 107 	238 	466
f 469 	472 	473
f 469 	473 	470
f 471 	459 	468
f 362 	366 	377
f 380 	377 	366
f 366 	370 	380
f 130 	380 	119
f 370 	119 	380
f 215 	100 	440
f 391 	417 	387
f 471 	475 	459
f 414 	421 	400
f 409 	400 	421
f 388 	86 	479
f 476 	478 	481
f 476 	481 	482
f 479 	86 	90
f 479 	90 	484
f 483 	492 	480
f 482 	481 	485
f 482 	485 	486
f 284 	319 	414
f 404 	284 	414
f 400 	396 	414
f 404 	414 	396
f 488 	477 	483
f 334 	480 	489
f 352 	349 	409
f 443 	491 	441
f 477 	492 	483
f 492 	493 	480
f 489 	480 	493
f 421 	352 	409
f 565 	495 	496
f 490 	497 	108
f 490 	108 	107
f 499 	447 	498
f 446 	498 	447
f 497 	673 	108
f 417 	409 	349
f 502 	494 	501
f 494 	58 	501
f 500 	501 	58
f 545 	337 	169
f 377 	633 	362
f 362 	633 	437
f 498 	504 	506
f 498 	506 	499
f 505 	507 	113
f 505 	113 	112
f 495 	517 	496
f 514 	496 	517
f 509 	505 	112
f 509 	112 	116
f 416 	509 	116
f 510 	475 	508
f 488 	508 	477
f 504 	511 	512
f 504 	512 	506
f 513 	575 	142
f 521 	522 	515
f 251 	487 	524
f 251 	524 	516
f 261 	251 	516
f 459 	475 	231
f 510 	503 	475
f 477 	508 	475
f 518 	513 	142
f 518 	142 	145
f 511 	514 	517
f 511 	517 	512
f 520 	518 	145
f 520 	145 	148
f 526 	473 	525
f 472 	525 	473
f 524 	487 	523
f 522 	523 	487
f 487 	515 	522
f 521 	515 	75
f 113 	507 	520
f 113 	520 	148
f 528 	519 	527
f 519 	494 	527
f 502 	527 	494
f 525 	529 	530
f 525 	530 	526
f 536 	313 	531
f 534 	535 	533
f 329 	536 	531
f 329 	531 	332
f 537 	161 	160
f 537 	160 	532
f 130 	478 	128
f 476 	128 	478
f 161 	537 	563
f 535 	539 	533
f 541 	486 	540
f 485 	540 	486
f 165 	542 	246
f 543 	554 	538
f 538 	544 	125
f 545 	169 	172
f 545 	172 	546
f 386 	533 	43
f 544 	538 	547
f 548 	561 	543
f 164 	95 	549
f 94 	549 	95
f 549 	542 	165
f 549 	165 	164
f 559 	560 	551
f 561 	552 	543
f 552 	554 	543
f 547 	538 	554
f 555 	550 	553
f 555 	553 	556
f 65 	31 	58
f 562 	500 	58
f 557 	555 	556
f 557 	556 	558
f 46 	243 	551
f 559 	551 	243
f 548 	551 	560
f 561 	548 	560
f 546 	172 	176
f 557 	558 	597
f 69 	47 	65
f 161 	563 	200
f 564 	565 	496
f 566 	546 	176
f 30 	58 	31
f 47 	31 	65
f 562 	58 	30
f 69 	106 	47
f 81 	570 	75
f 567 	568 	565
f 567 	565 	564
f 566 	176 	183
f 566 	183 	569
f 539 	22 	533
f 22 	43 	533
f 106 	111 	43
f 569 	183 	200
f 569 	200 	563
f 71 	36 	81
f 36 	570 	81
f 571 	75 	570
f 521 	75 	571
f 568 	567 	573
f 568 	573 	574
f 575 	572 	191
f 575 	191 	194
f 94 	531 	313
f 573 	576 	577
f 573 	577 	574
f 575 	194 	142
f 440 	578 	215
f 255 	71 	259
f 36 	71 	255
f 71 	538 	259
f 125 	259 	538
f 43 	47 	106
f 111 	101 	43
f 386 	43 	101
f 386 	101 	339
f 578 	579 	216
f 578 	216 	215
f 310 	246 	313
f 246 	542 	313
f 458 	481 	451
f 458 	467 	481
f 87 	451 	481
f 87 	481 	478
f 34 	40 	580
f 34 	580 	35
f 128 	476 	121
f 121 	118 	128
f 40 	602 	580
f 144 	231 	503
f 467 	470 	481
f 485 	481 	470
f 485 	470 	473
f 581 	582 	583
f 581 	583 	584
f 178 	231 	144
f 503 	231 	475
f 565 	600 	495
f 600 	597 	495
f 389 	361 	384
f 378 	384 	359
f 584 	583 	585
f 584 	585 	586
f 149 	156 	528
f 519 	528 	156
f 581 	591 	582
f 367 	389 	372
f 361 	389 	367
f 359 	384 	361
f 479 	431 	389
f 586 	585 	587
f 586 	587 	588
f 292 	302 	193
f 447 	499 	443
f 443 	499 	506
f 443 	506 	512
f 517 	443 	512
f 178 	185 	231
f 592 	582 	591
f 130 	123 	478
f 588 	587 	589
f 588 	589 	590
f 473 	526 	485
f 540 	485 	526
f 526 	530 	540
f 337 	423 	410
f 410 	407 	337
f 407 	403 	337
f 403 	394 	337
f 316 	337 	394
f 316 	394 	320
f 17 	592 	18
f 591 	18 	592
f 224 	206 	219
f 590 	589 	593
f 590 	593 	594
f 420 	337 	416
f 553 	792 	517
f 210 	206 	224
f 224 	156 	210
f 149 	210 	156
f 594 	593 	676
f 495 	558 	517
f 556 	517 	558
f 556 	553 	517
f 545 	505 	337
f 337 	420 	423
f 378 	359 	423
f 359 	410 	423
f 595 	598 	599
f 595 	599 	596
f 305 	273 	249
f 257 	244 	273
f 273 	428 	452
f 558 	495 	597
f 292 	305 	249
f 244 	249 	273
f 440 	439 	484
f 427 	389 	431
f 372 	389 	427
f 601 	600 	565
f 602 	603 	580
f 305 	292 	198
f 662 	595 	661
f 596 	661 	595
f 231 	185 	302
f 431 	479 	435
f 439 	435 	479
f 479 	484 	439
f 565 	568 	601
f 568 	574 	601
f 602 	605 	606
f 602 	606 	603
f 673 	497 	490
f 574 	577 	601
f 577 	609 	601
f 604 	601 	609
f 214 	293 	14
f 465 	466 	474
f 509 	337 	505
f 267 	355 	76
f 416 	337 	509
f 79 	285 	276
f 666 	276 	285
f 609 	610 	604
f 610 	611 	604
f 607 	604 	611
f 607 	611 	612
f 54 	281 	617
f 223 	463 	615
f 608 	223 	615
f 608 	474 	227
f 463 	462 	615
f 614 	615 	462
f 613 	614 	462
f 621 	616 	530
f 540 	530 	616
f 138 	618 	622
f 138 	622 	266
f 566 	520 	545
f 518 	520 	566
f 507 	545 	520
f 545 	507 	505
f 270 	202 	201
f 627 	220 	579
f 216 	579 	220
f 625 	792 	553
f 623 	792 	625
f 549 	94 	542
f 94 	313 	542
f 630 	632 	626
f 624 	629 	626
f 630 	626 	629
f 627 	686 	220
f 668 	606 	605
f 90 	204 	634
f 90 	634 	484
f 546 	566 	545
f 634 	204 	209
f 634 	209 	637
f 621 	642 	616
f 637 	209 	213
f 637 	213 	639
f 636 	635 	641
f 640 	641 	635
f 638 	616 	642
f 642 	643 	638
f 631 	638 	643
f 575 	563 	572
f 644 	645 	641
f 644 	641 	640
f 466 	697 	107
f 644 	648 	649
f 644 	649 	645
f 650 	694 	223
f 563 	537 	572
f 532 	572 	537
f 575 	513 	563
f 569 	563 	513
f 513 	518 	569
f 566 	569 	518
f 652 	650 	223
f 652 	223 	227
f 266 	622 	654
f 266 	654 	271
f 637 	579 	634
f 578 	440 	634
f 484 	634 	440
f 576 	659 	577
f 270 	656 	202
f 653 	655 	657
f 653 	657 	658
f 577 	659 	609
f 639 	627 	637
f 579 	578 	634
f 270 	277 	656
f 659 	660 	610
f 659 	610 	609
f 686 	627 	639
f 579 	637 	627
f 654 	272 	271
f 50 	271 	272
f 660 	663 	611
f 660 	611 	610
f 277 	664 	656
f 663 	665 	612
f 663 	612 	611
f 277 	276 	666
f 277 	666 	664
f 667 	662 	661
f 667 	661 	668
f 837 	612 	665
f 598 	920 	599
f 670 	697 	669
f 279 	671 	617
f 279 	617 	281
f 672 	557 	597
f 605 	667 	668
f 62 	671 	279
f 674 	672 	597
f 674 	597 	600
f 593 	675 	676
f 62 	294 	678
f 697 	703 	669
f 490 	697 	673
f 670 	673 	697
f 676 	675 	677
f 676 	677 	679
f 674 	600 	601
f 674 	601 	680
f 294 	291 	682
f 294 	682 	678
f 679 	677 	684
f 679 	684 	685
f 680 	601 	604
f 680 	604 	687
f 686 	639 	683
f 681 	683 	572
f 639 	572 	683
f 532 	681 	572
f 291 	290 	688
f 291 	688 	682
f 687 	604 	607
f 687 	607 	690
f 691 	693 	728
f 286 	692 	688
f 286 	688 	290
f 695 	696 	693
f 695 	693 	691
f 303 	699 	24
f 529 	700 	621
f 529 	621 	530
f 695 	635 	696
f 636 	696 	635
f 698 	703 	697
f 303 	309 	704
f 303 	704 	699
f 700 	724 	621
f 701 	918 	702
f 540 	616 	705
f 540 	705 	541
f 702 	655 	701
f 653 	701 	655
f 308 	706 	704
f 308 	704 	309
f 652 	669 	703
f 707 	652 	703
f 307 	708 	706
f 307 	706 	308
f 443 	792 	491
f 684 	709 	710
f 684 	710 	685
f 307 	306 	711
f 307 	711 	708
f 713 	763 	623
f 923 	922 	709
f 710 	709 	922
f 716 	713 	623
f 716 	623 	625
f 715 	689 	714
f 714 	689 	712
f 694 	650 	712
f 831 	689 	715
f 694 	712 	689
f 707 	712 	650
f 652 	707 	650
f 297 	27 	719
f 625 	553 	716
f 550 	716 	553
f 722 	723 	718
f 722 	718 	717
f 300 	297 	719
f 300 	719 	725
f 724 	642 	621
f 726 	728 	723
f 726 	723 	722
f 724 	729 	643
f 724 	643 	642
f 300 	725 	314
f 734 	735 	730
f 727 	730 	735
f 728 	726 	691
f 729 	798 	643
f 306 	327 	711
f 731 	936 	732
f 733 	739 	730
f 632 	741 	628
f 628 	626 	632
f 813 	737 	631
f 450 	452 	428
f 738 	748 	733
f 734 	730 	739
f 740 	813 	633
f 236 	231 	302
f 185 	193 	302
f 198 	292 	193
f 736 	628 	741
f 736 	741 	742
f 736 	742 	743
f 736 	743 	744
f 633 	377 	740
f 375 	740 	377
f 744 	755 	736
f 747 	738 	746
f 748 	738 	747
f 745 	746 	738
f 739 	733 	748
f 711 	327 	750
f 616 	638 	751
f 616 	751 	705
f 753 	756 	764
f 327 	326 	754
f 327 	754 	750
f 751 	638 	631
f 751 	631 	737
f 762 	764 	756
f 757 	758 	752
f 759 	752 	758
f 752 	749 	757
f 755 	757 	749
f 749 	736 	755
f 326 	325 	760
f 326 	760 	754
f 791 	491 	792
f 325 	324 	765
f 325 	765 	760
f 761 	762 	756
f 764 	766 	753
f 738 	753 	766
f 766 	745 	738
f 796 	619 	620
f 763 	646 	623
f 324 	807 	765
f 771 	767 	647
f 771 	647 	651
f 769 	629 	768
f 725 	772 	314
f 646 	763 	771
f 646 	771 	651
f 780 	781 	768
f 314 	772 	776
f 314 	776 	315
f 783 	784 	806
f 770 	768 	781
f 880 	775 	781
f 770 	781 	775
f 785 	786 	784
f 785 	784 	783
f 812 	816 	769
f 789 	774 	788
f 788 	777 	782
f 778 	786 	785
f 778 	785 	779
f 335 	790 	787
f 335 	787 	336
f 774 	735 	773
f 791 	792 	793
f 791 	793 	795
f 334 	794 	790
f 334 	790 	335
f 780 	629 	624
f 780 	768 	629
f 779 	430 	778
f 434 	778 	430
f 334 	229 	794
f 735 	820 	773
f 777 	788 	774
f 735 	774 	789
f 789 	727 	735
f 798 	799 	643
f 798 	804 	799
f 620 	802 	796
f 797 	796 	802
f 797 	802 	822
f 803 	808 	801
f 808 	720 	801
f 331 	800 	222
f 799 	804 	806
f 324 	345 	807
f 803 	825 	832
f 721 	801 	720
f 804 	783 	806
f 345 	344 	810
f 345 	810 	807
f 813 	631 	814
f 813 	814 	633
f 629 	769 	816
f 812 	809 	816
f 816 	809 	805
f 805 	841 	816
f 818 	820 	815
f 819 	797 	822
f 776 	817 	340
f 776 	340 	315
f 820 	845 	811
f 815 	820 	811
f 818 	773 	820
f 127 	415 	821
f 353 	821 	415
f 831 	832 	825
f 823 	795 	793
f 823 	793 	826
f 822 	824 	819
f 613 	462 	824
f 819 	824 	462
f 351 	827 	821
f 351 	821 	353
f 823 	826 	829
f 823 	829 	830
f 351 	336 	827
f 787 	827 	336
f 808 	803 	832
f 831 	825 	689
f 835 	800 	348
f 331 	348 	800
f 612 	837 	838
f 834 	836 	845
f 838 	837 	839
f 838 	839 	840
f 59 	692 	286
f 841 	833 	828
f 669 	652 	227
f 669 	227 	228
f 840 	839 	842
f 840 	842 	843
f 834 	845 	820
f 670 	669 	228
f 670 	228 	233
f 828 	816 	841
f 673 	670 	233
f 673 	233 	238
f 607 	847 	848
f 607 	848 	690
f 849 	811 	845
f 673 	238 	108
f 858 	859 	903
f 848 	847 	851
f 848 	851 	852
f 686 	455 	220
f 852 	851 	854
f 852 	854 	855
f 686 	683 	456
f 686 	456 	455
f 849 	863 	856
f 997 	855 	854
f 683 	681 	453
f 683 	453 	456
f 681 	532 	453
f 160 	453 	532
f 859 	860 	903
f 846 	903 	860
f 861 	846 	860
f 844 	841 	805
f 861 	844 	850
f 850 	844 	805
f 850 	846 	861
f 862 	1000 	864
f 572 	639 	213
f 572 	213 	191
f 864 	647 	862
f 767 	862 	647
f 866 	905 	865
f 865 	853 	863
f 867 	905 	866
f 868 	905 	867
f 908 	905 	868
f 856 	863 	853
f 856 	811 	849
f 869 	775 	880
f 873 	843 	871
f 842 	871 	843
f 490 	107 	697
f 875 	893 	872
f 880 	887 	869
f 871 	877 	873
f 689 	819 	462
f 870 	869 	887
f 873 	877 	879
f 878 	893 	875
f 872 	888 	782
f 694 	689 	462
f 694 	462 	463
f 885 	879 	877
f 887 	892 	876
f 876 	874 	887
f 874 	870 	887
f 882 	893 	878
f 788 	782 	888
f 694 	463 	223
f 885 	877 	883
f 881 	876 	892
f 892 	894 	881
f 900 	901 	886
f 893 	888 	872
f 715 	613 	831
f 889 	890 	885
f 889 	885 	883
f 891 	900 	886
f 884 	881 	894
f 895 	896 	890
f 895 	890 	889
f 466 	465 	698
f 466 	698 	697
f 894 	904 	884
f 898 	899 	896
f 898 	896 	895
f 902 	906 	891
f 882 	886 	901
f 893 	882 	901
f 714 	614 	613
f 714 	613 	715
f 646 	792 	623
f 651 	792 	646
f 443 	517 	792
f 647 	826 	651
f 910 	912 	897
f 884 	904 	897
f 910 	897 	904
f 283 	412 	318
f 322 	219 	206
f 778 	434 	814
f 633 	814 	434
f 905 	911 	902
f 900 	891 	906
f 799 	806 	631
f 643 	799 	631
f 857 	858 	903
f 897 	912 	903
f 857 	903 	907
f 914 	903 	912
f 907 	903 	914
f 347 	386 	343
f 911 	905 	909
f 913 	902 	911
f 906 	902 	913
f 908 	909 	905
f 853 	865 	905
f 339 	343 	386
f 582 	592 	583
f 786 	778 	814
f 814 	631 	806
f 806 	784 	814
f 437 	633 	434
f 784 	786 	814
f 586 	591 	584
f 592 	17 	585
f 585 	583 	592
f 826 	793 	792
f 354 	408 	350
f 350 	418 	347
f 581 	584 	591
f 588 	19 	586
f 792 	651 	826
f 829 	826 	647
f 17 	20 	585
f 587 	585 	20
f 591 	586 	18
f 590 	602 	588
f 20 	26 	587
f 26 	29 	587
f 847 	607 	612
f 18 	586 	19
f 118 	369 	379
f 612 	838 	847
f 29 	35 	587
f 35 	580 	587
f 580 	603 	587
f 589 	587 	603
f 698 	465 	474
f 840 	843 	851
f 851 	847 	840
f 838 	840 	847
f 594 	605 	590
f 602 	40 	588
f 40 	34 	588
f 34 	28 	588
f 25 	588 	28
f 19 	588 	25
f 712 	615 	614
f 712 	614 	714
f 915 	731 	732
f 915 	732 	916
f 854 	851 	843
f 703 	698 	474
f 917 	915 	916
f 917 	916 	918
f 703 	474 	608
f 703 	608 	707
f 701 	917 	918
f 647 	864 	829
f 707 	608 	615
f 707 	615 	712
f 598 	919 	920
f 602 	590 	605
f 605 	594 	667
f 676 	679 	667
f 922 	923 	920
f 922 	920 	919
f 921 	854 	879
f 843 	873 	854
f 721 	720 	620
f 721 	620 	619
f 885 	890 	921
f 873 	879 	854
f 885 	921 	879
f 658 	640 	653
f 653 	640 	635
f 925 	926 	927
f 925 	927 	928
f 929 	930 	926
f 929 	926 	925
f 829 	864 	899
f 924 	921 	899
f 924 	899 	864
f 896 	899 	921
f 890 	896 	921
f 640 	658 	644
f 658 	648 	644
f 929 	717 	930
f 718 	930 	717
f 735 	734 	630
f 735 	630 	629
f 931 	1 	41
f 931 	41 	933
f 595 	662 	598
f 41 	39 	935
f 41 	935 	933
f 927 	934 	932
f 927 	932 	928
f 739 	632 	734
f 630 	734 	632
f 679 	685 	662
f 667 	679 	662
f 39 	38 	937
f 39 	937 	935
f 936 	1038 	938
f 594 	676 	667
f 38 	37 	939
f 38 	939 	937
f 936 	938 	732
f 632 	739 	741
f 748 	741 	739
f 747 	742 	741
f 747 	741 	748
f 12 	940 	939
f 12 	939 	37
f 598 	662 	685
f 747 	746 	743
f 747 	743 	742
f 12 	11 	944
f 12 	944 	940
f 941 	943 	945
f 941 	945 	942
f 746 	745 	744
f 746 	744 	743
f 943 	946 	947
f 943 	947 	945
f 11 	10 	948
f 11 	948 	944
f 745 	766 	744
f 946 	949 	950
f 946 	950 	947
f 10 	9 	951
f 10 	951 	948
f 653 	695 	701
f 635 	695 	653
f 695 	691 	701
f 727 	789 	624
f 949 	952 	953
f 949 	953 	950
f 9 	8 	954
f 9 	954 	951
f 730 	727 	624
f 730 	624 	626
f 952 	955 	956
f 952 	956 	953
f 922 	919 	710
f 919 	598 	710
f 8 	7 	957
f 8 	957 	954
f 955 	1025 	956
f 733 	730 	626
f 733 	626 	628
f 7 	6 	958
f 7 	958 	957
f 959 	960 	961
f 959 	961 	962
f 6 	5 	963
f 6 	963 	958
f 733 	628 	736
f 733 	736 	738
f 691 	726 	917
f 722 	717 	915
f 5 	4 	964
f 5 	964 	963
f 766 	755 	744
f 4 	2 	965
f 4 	965 	964
f 915 	917 	722
f 726 	722 	917
f 691 	917 	701
f 962 	961 	966
f 962 	966 	967
f 766 	764 	757
f 766 	757 	755
f 685 	710 	598
f 2 	1 	931
f 2 	931 	965
f 764 	762 	758
f 764 	758 	757
f 762 	761 	759
f 762 	759 	758
f 967 	966 	969
f 967 	969 	970
f 242 	971 	968
f 242 	968 	243
f 753 	738 	749
f 736 	749 	738
f 959 	941 	960
f 942 	960 	941
f 753 	749 	752
f 753 	752 	756
f 242 	974 	971
f 928 	932 	936
f 731 	925 	936
f 915 	717 	731
f 929 	731 	717
f 929 	925 	731
f 928 	936 	925
f 970 	969 	972
f 970 	972 	973
f 756 	752 	759
f 756 	759 	761
f 254 	974 	242
f 973 	972 	975
f 973 	975 	976
f 619 	796 	721
f 254 	978 	974
f 976 	975 	977
f 976 	977 	979
f 264 	978 	254
f 262 	980 	978
f 262 	978 	264
f 979 	977 	981
f 979 	981 	982
f 949 	970 	952
f 946 	970 	949
f 943 	967 	946
f 941 	967 	943
f 970 	973 	952
f 979 	1033 	976
f 1032 	1033 	982
f 262 	261 	983
f 262 	983 	980
f 982 	981 	984
f 982 	984 	985
f 789 	788 	781
f 789 	781 	780
f 985 	984 	986
f 985 	986 	987
f 967 	941 	962
f 46 	1069 	988
f 959 	962 	941
f 970 	946 	967
f 774 	773 	769
f 774 	769 	768
f 139 	46 	988
f 139 	988 	989
f 991 	649 	990
f 648 	990 	649
f 774 	768 	770
f 774 	770 	777
f 139 	989 	992
f 139 	992 	251
f 976 	1024 	973
f 955 	952 	973
f 990 	1017 	991
f 777 	770 	775
f 777 	775 	782
f 994 	987 	993
f 986 	993 	987
f 829 	899 	898
f 829 	898 	830
f 995 	996 	994
f 995 	994 	993
f 769 	773 	818
f 854 	921 	997
f 1031 	1032 	985
f 789 	780 	624
f 998 	1001 	1002
f 998 	1002 	999
f 1000 	997 	921
f 1000 	921 	924
f 796 	801 	721
f 987 	994 	1030
f 1000 	924 	864
f 801 	796 	797
f 801 	797 	803
f 1003 	983 	516
f 261 	516 	983
f 648 	658 	990
f 516 	524 	1003
f 1005 	1004 	1006
f 1005 	1006 	1007
f 1003 	524 	1008
f 802 	620 	808
f 720 	808 	620
f 822 	802 	808
f 524 	523 	1009
f 524 	1009 	1008
f 1007 	998 	1005
f 629 	816 	820
f 629 	820 	735
f 1010 	1011 	1012
f 1010 	1012 	1013
f 523 	522 	1014
f 523 	1014 	1009
f 522 	521 	1016
f 522 	1016 	1014
f 990 	1015 	1017
f 1007 	1040 	1001
f 1001 	998 	1007
f 1015 	1018 	1019
f 1015 	1019 	1017
f 815 	811 	805
f 815 	805 	809
f 818 	815 	809
f 818 	809 	812
f 1018 	998 	999
f 1018 	999 	1019
f 992 	1020 	487
f 992 	487 	251
f 1018 	1005 	998
f 1018 	1015 	1005
f 658 	1005 	1015
f 658 	1015 	990
f 657 	1004 	1005
f 657 	1005 	658
f 996 	1010 	1013
f 996 	1013 	994
f 487 	1020 	1021
f 487 	1021 	515
f 360 	375 	365
f 369 	365 	379
f 379 	365 	375
f 118 	379 	128
f 995 	1011 	1010
f 995 	1010 	996
f 515 	1021 	75
f 386 	347 	418
f 955 	1024 	1025
f 1028 	1022 	1023
f 395 	412 	402
f 401 	412 	395
f 408 	422 	401
f 283 	402 	412
f 412 	219 	318
f 1023 	1022 	1029
f 1023 	1029 	1027
f 536 	1026 	312
f 1023 	1030 	1028
f 536 	329 	330
f 536 	330 	1026
f 531 	94 	95
f 531 	95 	1034
f 818 	812 	769
f 24 	356 	303
f 982 	985 	1032
f 979 	982 	1033
f 985 	987 	1031
f 1024 	976 	1033
f 955 	973 	1024
f 1030 	1031 	987
f 1028 	1030 	994
f 994 	1013 	1028
f 333 	332 	1034
f 531 	1034 	332
f 797 	819 	825
f 797 	825 	803
f 1045 	936 	1035
f 1036 	547 	1037
f 689 	825 	819
f 24 	21 	358
f 24 	358 	356
f 1037 	547 	554
f 374 	51 	397
f 808 	832 	822
f 1038 	936 	1045
f 932 	1035 	936
f 554 	552 	1039
f 554 	1039 	1037
f 832 	831 	824
f 832 	824 	822
f 1049 	1001 	1040
f 358 	21 	406
f 552 	561 	1039
f 613 	824 	831
f 110 	406 	21
f 1041 	1048 	1040
f 1039 	561 	1042
f 561 	560 	1043
f 561 	1043 	1042
f 297 	364 	27
f 560 	559 	1044
f 560 	1044 	1043
f 1045 	1046 	1038
f 1038 	1047 	1041
f 1047 	1038 	1046
f 1048 	1041 	1047
f 1049 	1040 	1048
f 88 	48 	371
f 559 	243 	1044
f 968 	1044 	243
f 828 	834 	820
f 828 	820 	816
f 1051 	1028 	1050
f 1013 	1050 	1028
f 374 	371 	48
f 374 	48 	51
f 544 	1052 	125
f 868 	857 	908
f 54 	376 	281
f 544 	547 	1052
f 1036 	1052 	547
f 166 	399 	91
f 836 	834 	833
f 828 	833 	834
f 538 	71 	72
f 538 	72 	1059
f 1060 	1101 	1058
f 1061 	1100 	1060
f 1062 	1099 	1061
f 1063 	1099 	1062
f 1064 	1099 	1063
f 867 	858 	857
f 867 	857 	868
f 286 	381 	59
f 543 	538 	1059
f 543 	1059 	1065
f 845 	836 	833
f 1054 	1074 	1066
f 1053 	1054 	1066
f 392 	59 	381
f 548 	543 	1065
f 548 	1065 	1067
f 866 	859 	858
f 866 	858 	867
f 1056 	1068 	1055
f 392 	376 	54
f 551 	548 	1067
f 551 	1067 	1069
f 833 	841 	845
f 62 	383 	294
f 46 	551 	1069
f 865 	860 	859
f 865 	859 	866
f 412 	401 	422
f 354 	422 	408
f 418 	350 	408
f 1072 	1073 	1071
f 279 	383 	62
f 1075 	1016 	521
f 1084 	1066 	1074
f 322 	318 	219
f 398 	92 	91
f 398 	91 	399
f 1075 	521 	571
f 390 	386 	418
f 1024 	1033 	1077
f 1024 	1077 	1025
f 571 	570 	1076
f 571 	1076 	1075
f 661 	596 	599
f 570 	36 	67
f 570 	67 	1076
f 1030 	1023 	1080
f 430 	740 	436
f 375 	360 	740
f 436 	740 	360
f 392 	84 	59
f 668 	593 	606
f 593 	589 	606
f 675 	593 	668
f 1033 	1032 	1078
f 1033 	1078 	1077
f 54 	84 	392
f 1027 	1080 	1023
f 397 	93 	92
f 397 	92 	398
f 449 	85 	482
f 1028 	1029 	1022
f 657 	655 	641
f 636 	641 	655
f 51 	93 	397
f 1032 	1031 	1079
f 1032 	1079 	1078
f 486 	469 	482
f 457 	449 	482
f 82 	476 	85
f 476 	482 	85
f 393 	159 	88
f 641 	645 	657
f 1081 	1029 	1028
f 1071 	1073 	1074
f 1073 	1084 	1074
f 469 	464 	482
f 457 	482 	464
f 1083 	1084 	1082
f 1031 	1030 	1080
f 1031 	1080 	1079
f 920 	709 	599
f 564 	496 	674
f 1084 	1073 	1082
f 1085 	1087 	1082
f 603 	606 	589
f 1028 	1051 	1086
f 1028 	1086 	1081
f 1082 	1087 	1083
f 1087 	1055 	1083
f 1068 	1083 	1055
f 1045 	1035 	1088
f 1045 	1088 	1127
f 677 	675 	668
f 1035 	932 	1088
f 934 	1088 	932
f 1050 	1090 	1086
f 1050 	1086 	1051
f 668 	661 	677
f 684 	677 	661
f 1089 	1091 	1092
f 1092 	1112 	1089
f 514 	511 	491
f 511 	504 	491
f 504 	498 	491
f 441 	491 	498
f 441 	498 	446
f 371 	393 	88
f 82 	121 	476
f 344 	411 	117
f 344 	117 	810
f 636 	655 	696
f 655 	702 	696
f 693 	696 	702
f 702 	918 	693
f 541 	525 	486
f 411 	426 	133
f 411 	133 	117
f 1093 	1094 	1095
f 1094 	1070 	1095
f 709 	684 	599
f 661 	599 	684
f 1070 	1089 	1095
f 472 	486 	525
f 529 	525 	541
f 469 	486 	472
f 817 	102 	405
f 817 	405 	340
f 555 	557 	491
f 550 	555 	491
f 102 	27 	405
f 364 	405 	27
f 916 	732 	718
f 496 	514 	557
f 1097 	1098 	1096
f 1064 	1096 	1098
f 1064 	1098 	1099
f 1100 	1061 	1099
f 1101 	1060 	1100
f 1103 	1057 	1102
f 1101 	1102 	1058
f 1058 	1102 	1057
f 129 	419 	110
f 406 	110 	419
f 1104 	1114 	1105
f 415 	127 	432
f 718 	723 	916
f 918 	916 	723
f 723 	728 	918
f 728 	693 	918
f 491 	557 	514
f 923 	709 	920
f 557 	672 	496
f 1104 	1105 	1107
f 1106 	1107 	1105
f 124 	835 	413
f 348 	413 	835
f 3 	114 	1109
f 732 	938 	926
f 930 	732 	926
f 718 	732 	930
f 1088 	934 	938
f 927 	926 	938
f 927 	938 	934
f 1111 	1095 	1089
f 426 	425 	134
f 426 	134 	133
f 687 	659 	680
f 567 	564 	680
f 674 	680 	564
f 672 	674 	496
f 1110 	1105 	1114
f 448 	173 	425
f 665 	663 	690
f 659 	576 	680
f 576 	573 	680
f 567 	680 	573
f 956 	972 	953
f 1025 	972 	956
f 972 	969 	953
f 945 	947 	966
f 969 	966 	947
f 950 	969 	947
f 1113 	1111 	1112
f 1111 	1089 	1112
f 419 	129 	137
f 419 	137 	424
f 659 	687 	660
f 663 	660 	687
f 687 	690 	663
f 690 	848 	665
f 837 	665 	848
f 960 	942 	961
f 1115 	1116 	1114
f 1110 	1114 	1117
f 1118 	1110 	1117
f 1116 	1117 	1114
f 724 	700 	705
f 700 	529 	705
f 541 	705 	529
f 432 	154 	153
f 432 	153 	433
f 942 	945 	966
f 966 	961 	942
f 3 	104 	13
f 1119 	13 	104
f 127 	154 	432
f 950 	953 	969
f 273 	146 	428
f 863 	861 	860
f 863 	860 	865
f 16 	114 	3
f 1108 	1109 	114
f 975 	972 	1025
f 429 	428 	146
f 429 	146 	147
f 56 	140 	15
f 120 	15 	140
f 413 	429 	147
f 413 	147 	124
f 1025 	1077 	975
f 135 	120 	140
f 845 	841 	844
f 845 	844 	849
f 977 	975 	1077
f 981 	977 	1077
f 162 	150 	131
f 849 	844 	861
f 849 	861 	863
f 444 	168 	167
f 444 	167 	445
f 162 	131 	157
f 442 	166 	168
f 442 	168 	444
f 179 	201 	180
f 166 	442 	399
f 856 	853 	846
f 856 	846 	850
f 201 	157 	138
f 991 	657 	649
f 438 	424 	159
f 850 	805 	856
f 811 	856 	805
f 993 	986 	1080
f 187 	180 	201
f 179 	162 	201
f 170 	162 	174
f 179 	174 	162
f 157 	201 	162
f 393 	438 	159
f 880 	781 	788
f 13 	16 	3
f 454 	186 	257
f 1017 	1019 	1004
f 880 	788 	888
f 134 	425 	173
f 448 	445 	167
f 448 	167 	173
f 159 	424 	137
f 1006 	1004 	999
f 1006 	999 	1002
f 452 	188 	186
f 452 	186 	454
f 887 	880 	893
f 888 	893 	880
f 450 	190 	188
f 450 	188 	452
f 450 	433 	190
f 153 	190 	433
f 461 	460 	195
f 461 	195 	199
f 892 	887 	893
f 460 	459 	196
f 460 	196 	195
f 999 	1004 	1019
f 1017 	657 	991
f 1004 	657 	1017
f 645 	649 	657
f 892 	893 	901
f 1011 	995 	993
f 1011 	993 	1012
f 334 	489 	229
f 901 	900 	894
f 901 	894 	892
f 1080 	1081 	993
f 468 	461 	203
f 199 	203 	461
f 872 	782 	869
f 775 	869 	782
f 493 	239 	489
f 229 	489 	239
f 1080 	1027 	1081
f 1029 	1081 	1027
f 872 	869 	870
f 872 	870 	875
f 203 	208 	471
f 203 	471 	468
f 875 	870 	874
f 875 	874 	878
f 493 	492 	240
f 493 	240 	239
f 475 	471 	212
f 208 	212 	471
f 878 	874 	876
f 878 	876 	882
f 477 	475 	212
f 477 	212 	217
f 1078 	1079 	984
f 986 	984 	1079
f 1090 	1012 	1081
f 1012 	993 	1081
f 1080 	986 	1079
f 984 	981 	1078
f 1077 	1078 	981
f 492 	477 	217
f 492 	217 	240
f 882 	876 	881
f 882 	881 	886
f 222 	480 	331
f 480 	222 	226
f 480 	226 	483
f 886 	881 	884
f 886 	884 	891
f 483 	226 	230
f 483 	230 	488
f 1088 	938 	1127
f 1120 	1127 	938
f 891 	884 	902
f 1121 	1006 	1002
f 501 	252 	250
f 501 	250 	502
f 500 	253 	252
f 500 	252 	501
f 904 	894 	906
f 900 	906 	894
f 1121 	1002 	1123
f 1123 	1124 	1121
f 910 	904 	906
f 57 	58 	241
f 494 	241 	58
f 910 	906 	913
f 459 	231 	232
f 459 	232 	196
f 263 	141 	503
f 1124 	1125 	1122
f 1122 	1121 	1124
f 1120 	1122 	1125
f 1125 	1126 	1120
f 1127 	1120 	1126
f 913 	911 	912
f 913 	912 	910
f 508 	488 	265
f 230 	265 	488
f 508 	265 	268
f 508 	268 	510
f 909 	914 	912
f 909 	912 	911
f 1081 	1086 	1090
f 510 	268 	263
f 510 	263 	503
f 151 	149 	280
f 528 	280 	149
f 908 	907 	914
f 908 	914 	909
f 1129 	1139 	1128
f 527 	282 	280
f 527 	280 	528
f 527 	502 	282
f 250 	282 	502
f 857 	907 	908
f 1130 	1131 	1140
f 494 	519 	278
f 494 	278 	241
f 539 	535 	295
f 884 	897 	902
f 535 	534 	288
f 535 	288 	295
f 534 	533 	289
f 534 	289 	288
f 905 	902 	897
f 905 	897 	903
f 533 	386 	289
f 1135 	1136 	1161
f 1136 	1137 	1160
f 1159 	1160 	1137
f 1158 	1159 	1138
f 1132 	1158 	1138
f 295 	299 	539
f 328 	253 	562
f 500 	562 	253
f 853 	905 	903
f 853 	903 	846
f 1145 	1128 	1139
f 539 	299 	22
f 1150 	1148 	1131
f 1140 	1131 	1148
f 328 	562 	30
f 328 	30 	33
f 716 	491 	713
f 1142 	1143 	1144
f 1001 	1049 	1123
f 1001 	1123 	1002
f 791 	713 	491
f 550 	491 	716
f 1049 	1048 	1124
f 1049 	1124 	1123
f 1048 	1047 	1125
f 1048 	1125 	1124
f 1047 	1046 	1126
f 1047 	1126 	1125
f 1142 	1145 	1143
f 1139 	1147 	1145
f 1143 	1145 	1147
f 1146 	1143 	1147
f 1046 	1045 	1127
f 1046 	1127 	1126
f 430 	813 	740
f 1038 	1120 	938
f 1147 	1148 	1146
f 1148 	1150 	1146
f 705 	751 	724
f 1040 	1007 	1121
f 1006 	1121 	1007
f 1040 	1121 	1122
f 1040 	1122 	1041
f 1149 	1146 	1150
f 1041 	1122 	1120
f 1041 	1120 	1038
f 798 	729 	737
f 751 	737 	729
f 724 	751 	729
f 1050 	1013 	1090
f 1012 	1090 	1013
f 1054 	1128 	1145
f 1054 	1053 	1129
f 1054 	1129 	1128
f 1152 	1153 	1151
f 1056 	1130 	1140
f 1056 	1055 	1131
f 1056 	1131 	1130
f 791 	823 	771
f 791 	771 	763
f 791 	763 	713
f 1064 	1063 	1134
f 1064 	1134 	1133
f 1156 	1155 	1154
f 1063 	1062 	1135
f 1063 	1135 	1134
f 783 	813 	785
f 1062 	1061 	1136
f 1062 	1136 	1135
f 1155 	1156 	1141
f 1061 	1060 	1137
f 1061 	1137 	1136
f 1060 	1058 	1138
f 1060 	1138 	1137
f 798 	737 	804
f 813 	804 	737
f 1058 	1057 	1132
f 1058 	1132 	1138
f 1139 	1129 	1066
f 1053 	1066 	1129
f 1132 	1157 	1158
f 1137 	1138 	1159
f 1160 	1161 	1136
f 1164 	1133 	1162
f 1163 	1164 	1162
f 1161 	1162 	1133
f 1133 	1134 	1161
f 1134 	1135 	1161
f 804 	813 	783
f 779 	785 	813
f 430 	779 	813
f 1068 	1140 	1148
f 795 	823 	791
f 1168 	1166 	1165
f 1140 	1068 	1056
f 1150 	1131 	1055
f 1070 	1141 	1089
f 1171 	1175 	1166
f 1070 	1155 	1141
f 823 	830 	767
f 767 	771 	823
f 1071 	1142 	1144
f 1071 	1144 	1072
f 1166 	1168 	1167
f 1085 	1149 	1087
f 1087 	1149 	1150
f 1073 	1072 	1144
f 1073 	1144 	1143
f 852 	839 	848
f 1073 	1143 	1146
f 1073 	1146 	1082
f 1172 	1151 	1156
f 855 	842 	852
f 839 	837 	848
f 1145 	1074 	1054
f 1074 	1145 	1142
f 1074 	1142 	1071
f 1147 	1139 	1084
f 1066 	1084 	1139
f 839 	852 	842
f 997 	877 	855
f 1165 	1166 	1175
f 1082 	1146 	1149
f 1082 	1149 	1085
f 1084 	1083 	1148
f 1084 	1148 	1147
f 1148 	1083 	1068
f 1055 	1087 	1150
f 1173 	1174 	1172
f 1174 	1151 	1172
f 1152 	1151 	1174
f 1141 	1156 	1151
f 1091 	1153 	1152
f 1091 	1152 	1092
f 1141 	1151 	1089
f 871 	855 	877
f 842 	855 	871
f 1091 	1089 	1151
f 1091 	1151 	1153
f 1158 	1102 	1101
f 1158 	1101 	1159
f 1000 	898 	997
f 1176 	1177 	1175
f 1171 	1179 	1175
f 1178 	1179 	1171
f 1176 	1175 	1179
f 1094 	1093 	1154
f 1094 	1154 	1155
f 218 	205 	103
f 1101 	1100 	1160
f 1101 	1160 	1159
f 883 	997 	889
f 895 	889 	997
f 898 	895 	997
f 877 	997 	883
f 1000 	862 	898
f 767 	830 	862
f 898 	862 	830
f 1170 	115 	1169
f 1095 	1156 	1154
f 1095 	1154 	1093
f 1100 	1099 	1161
f 1100 	1161 	1160
f 1070 	1094 	1155
f 136 	143 	122
f 1099 	1098 	1162
f 1099 	1162 	1161
f 152 	163 	132
f 1097 	1163 	1162
f 1097 	1162 	1098
f 964 	965 	931
f 964 	931 	933
f 964 	933 	935
f 964 	935 	937
f 964 	937 	939
f 964 	939 	940
f 964 	940 	944
f 964 	944 	948
f 964 	948 	951
f 964 	951 	954
f 964 	954 	957
f 964 	957 	958
f 964 	958 	963
f 1096 	1164 	1163
f 1096 	1163 	1097
f 163 	155 	132
f 1133 	1164 	1096
f 1133 	1096 	1064
f 189 	202 	181
f 1157 	1132 	1103
f 1057 	1103 	1132
f 1103 	1102 	1158
f 1103 	1158 	1157
f 155 	202 	618
f 974 	989 	971
f 988 	971 	989
f 968 	971 	988
f 1104 	1168 	1165
f 1104 	1107 	1168
f 182 	163 	175
f 182 	181 	202
f 202 	163 	182
f 155 	163 	202
f 171 	175 	163
f 1167 	1168 	1106
f 1107 	1106 	1168
f 974 	978 	989
f 992 	989 	978
f 1105 	1110 	1171
f 1105 	1171 	1166
f 1180 	103 	205
f 1105 	1166 	1167
f 1105 	1167 	1106
f 218 	1169 	115
f 978 	980 	992
f 980 	983 	992
f 983 	1003 	992
f 1109 	1108 	1170
f 1109 	1170 	1169
f 218 	115 	235
f 214 	205 	235
f 218 	235 	205
f 1108 	114 	1170
f 143 	287 	234
f 13 	1119 	1180
f 1003 	1008 	992
f 1020 	992 	1008
f 1112 	1092 	1174
f 1152 	1174 	1092
f 1116 	1176 	1179
f 1116 	1179 	1117
f 235 	234 	214
f 234 	287 	214
f 104 	103 	1180
f 104 	1180 	1119
f 1172 	1156 	1111
f 1095 	1111 	1156
f 1008 	1009 	1020
f 1009 	1014 	1020
f 1021 	1020 	1014
f 1014 	1016 	1021
f 234 	122 	143
f 1104 	1165 	1114
f 1175 	1114 	1165
f 1034 	95 	312
f 1171 	1110 	1118
f 1171 	1118 	1178
f 1118 	1117 	1179
f 1118 	1179 	1178
f 312 	1026 	1034
f 333 	1034 	330
f 1026 	330 	1034
f 1172 	1111 	1113
f 1172 	1113 	1173
f 1113 	1112 	1174
f 1113 	1174 	1173
f 260 	1059 	72
f 1115 	1177 	1176
f 1115 	1176 	1116
f 1052 	1036 	1059
f 260 	126 	1059
f 1115 	1114 	1175
f 1115 	1175 	1177
f 293 	214 	287
f 218 	103 	104
f 218 	104 	3
f 1037 	1039 	1065
f 1065 	1059 	1037
f 1037 	1059 	1036
f 1067 	1065 	1042
f 1039 	1042 	1065
f 267 	269 	355
f 269 	275 	355
f 341 	355 	275
f 275 	272 	298
f 341 	275 	298
f 988 	1069 	968
f 1044 	968 	1069
f 1067 	1043 	1069
f 1043 	1067 	1042
f 1044 	1069 	1043
f 285 	298 	272
f 618 	202 	656
f 656 	664 	622
f 622 	618 	656
f 1075 	1076 	74
f 1021 	1016 	74
f 1075 	74 	1016
f 80 	74 	1076
f 1076 	67 	80
f 72 	80 	67
f 654 	622 	664
f 664 	666 	654
f 272 	654 	666
f 666 	285 	272
f 671 	62 	617
f 54 	617 	62
f 59 	62 	692
f 678 	692 	62
f 1052 	1059 	126
f 688 	692 	682
f 678 	682 	692
f 24 	699 	27
f 260 	72 	256
f 67 	256 	72
f 719 	27 	699
f 704 	719 	699
f 311 	312 	247
f 165 	247 	312
f 165 	312 	95
f 321 	60 	317
f 711 	772 	708
f 706 	708 	725
f 725 	719 	704
f 704 	706 	725
f 711 	750 	772
f 725 	708 	772
f 750 	754 	772
f 754 	760 	772
f 776 	772 	760
f 776 	760 	765
f 807 	817 	765
f 382 	357 	385
f 357 	363 	385
f 800 	835 	827
f 388 	385 	363
f 363 	368 	388
f 388 	368 	373
f 89 	96 	388
f 373 	89 	388
f 794 	222 	790
f 229 	222 	794
f 800 	790 	222
f 787 	790 	800
f 382 	73 	357
f 53 	357 	73
f 102 	817 	810
f 776 	765 	817
f 807 	810 	817
f 835 	124 	821
f 787 	800 	827
f 821 	827 	835
# 2312 faces

 #end of obj_0

